=============================================================
Computational environment                                    
=============================================================
Descriptor         | Value                                   
------------------ + ----------------------------------------
Timestamp          | 2019-05-23 00:58:01                     
Version            | 0.3.0                                   
GIT branch (plain) | dev_jonas                               
GIT revision       | f98e24ae81841a98a39d7d9e3b655ae6cdc97d4f
=============================================================