============================================================================================
Required computational resources                                                            
============================================================================================
Component  | Class      | Task       | Executor | manager | workers | resources | cumulative
---------- + ---------- + ---------- + -------- + ------- + ------- + --------- + ----------
Model      | Randomwalk | -          | -        |       0 |       1 |         1 |          1
Likelihood | PF         | Randomwalk | Serial   |       0 |       1 |         1 |          1
Sampler    | EMCEE      | PF         | Serial   |       0 |       1 |         1 |          1
============================================================================================