BATEAU_MULTISTART_PATHS_OUTPUT_V2
====================================================
&MULTISTART ID: 1 OF 1
====================================================
        iJ,    fcallz,  negoLogPost           ,  J,   U1W%Cmlt_E, -_[1]    ,   U1W%K_Qq_FR, mm^b/t_[,   sdevResid_[3]        ,
         0,         0,   1.45816700802585E+005,  J,   1.00000000000000E+000,  -4.60517018598809E+000,   0.00000000000000E+000,
         1,         4,   5.03574282351943E+004,  J,   9.83761257515864E-001,  -3.93580688389335E+000,   6.55001896398638E-001,
         2,         7,   2.16427770736471E+004,  J,   9.83761257515864E-001,  -3.87869026016690E+000,   1.09594761115934E+000,
         3,         9,   2.07036283680901E+004,  J,   1.23265553565633E+000,  -3.87869026016690E+000,   1.09594761115934E+000,
         4,        10,   1.83261395293859E+004,  J,   1.77987077209816E+000,  -4.52726882942622E+000,   1.09594761115934E+000,
         5,        11,   1.37157143009396E+004,  J,   1.77987077209816E+000,  -4.52726882942622E+000,   1.24908655104963E+000,
         6,        13,   8.76021695503714E+003,  J,   1.29999096079638E+000,  -4.81773289911626E+000,   1.40763190851103E+000,
         7,        14,   4.62175062117927E+003,  J,   1.29999096079638E+000,  -4.10895258341477E+000,   1.90864081641923E+000,
         8,        16,   4.08574065229756E+003,  J,   1.29999096079638E+000,  -4.61143507052133E+000,   1.90864081641923E+000,
         9,        18,   1.69153819762208E+003,  J,   1.29999096079638E+000,  -4.61143507052133E+000,   2.89119690210124E+000,
        10,        19,   1.55243129300077E+003,  J,   1.29999096079638E+000,  -5.59594469229913E+000,   2.89119690210124E+000,
        11,        23,   1.53919700647656E+003,  J,   1.29999096079638E+000,  -5.59594469229913E+000,   2.94456856986283E+000,
        12,        24,   1.52860000095808E+003,  J,   1.29999096079638E+000,  -5.59594469229913E+000,   3.00088904304002E+000,
        13,        26,   1.52181930597822E+003,  J,   1.29999096079638E+000,  -5.66848402990526E+000,   3.00088904304002E+000,
        14,        27,   1.51083716881141E+003,  J,   1.29999096079638E+000,  -5.66848402990526E+000,   3.25758547130469E+000,
        15,        28,   1.49348733810066E+003,  J,   9.32570398695546E-001,  -5.66848402990526E+000,   3.25758547130469E+000,
        16,        33,   1.42626122390470E+003,  J,   9.32570398695546E-001,  -6.54800683464436E+000,   2.48467316824563E+000,
        17,        34,   1.39063936393095E+003,  J,   9.32570398695546E-001,  -6.54800683464436E+000,   2.95001285586078E+000,
        18,        35,   1.38084998020421E+003,  J,   7.91823631908614E-001,  -6.54800683464436E+000,   2.95001285586078E+000,
        19,        38,   1.37499183225212E+003,  J,   7.91823631908614E-001,  -6.54800683464436E+000,   2.65189283526460E+000,
        20,        39,   1.35025245954560E+003,  J,   7.91823631908614E-001,  -6.68571069933590E+000,   2.65189283526460E+000,
        21,        50,   1.33491634062216E+003,  J,   7.91823631908614E-001,  -6.78756243643063E+000,   2.65189283526460E+000,
        22,        55,   1.29874803702814E+003,  J,   7.91823631908614E-001,  -7.16591774277001E+000,   2.65189283526460E+000,
        23,        57,   1.29074675073911E+003,  J,   7.91823631908614E-001,  -7.40951160181639E+000,   2.65189283526460E+000,
        24,        64,   1.29073562650950E+003,  J,   7.91823631908614E-001,  -7.41166838466490E+000,   2.65189283526460E+000,
        25,        68,   1.27736218840398E+003,  J,   7.28859119480549E-001,  -7.41166838466490E+000,   2.65189283526460E+000,
        26,        82,   1.26590941754014E+003,  J,   7.28859119480549E-001,  -7.41166838466490E+000,   2.50908551054504E+000,
        27,        91,   1.26532990547004E+003,  J,   7.28859119480549E-001,  -7.63217935284055E+000,   2.50908551054504E+000,
        28,        92,   1.26437471377450E+003,  J,   7.28859119480549E-001,  -7.63217935284055E+000,   2.48312282503566E+000,
        29,        94,   1.26263147954750E+003,  J,   7.28859119480549E-001,  -7.53312141499900E+000,   2.48312282503566E+000,
        30,        99,   1.26261446154830E+003,  J,   7.28859119480549E-001,  -7.53312141499900E+000,   2.48259914097961E+000,
Warning:qnewtonUnwise prescribed
*********************************************************************
------- ALGORITHMIC SETTINGS: DMSL NEWTON OPTIMIZATION MODULE -------
List of major settings and some (not all) 'esoteric' settings...
0. PRIMARY PROBLEM CHARACTERISTIX
   Number of variables (ndim) is 3
1. PRIMARY ALGORITHM SELECTION
   Globalization method:  Hookstep (near-exact) trust region
   Gradient method:       Forward difference approximation (default stepsize)
   Hessian method:        BFGS Quasi-Newton: unfactored Hessian
   Initial quasi-Hessian: Approximate Hessian diagonal (can be expensive)
   BFGS updating:     Damped BFGS update skipping
   Hessian resetting: Reset Quasi-Hessian to unit matrix when failing
2. TERMINATION CRITERIA
   Scaled gradient tolerance (gtol): 1.0E-10
   Scaled step tolerance (stol)    : 1.0E-14
   Scaled function tolerance (ftol): 1.0E-13
    --- stagnation detection settings --- 
   Stagnation tol factor, rel to stol and ftol (facTolStagnIter): 1.0E+02
   Max consecutive stagnant steps for stopping (nStagnIterMax)  : 100
   Max consecutive stagnant steps for refresh  (nStagnIterRfrsh): 20
3. ACTIVE-SET INFORMATION
   Bounds supplied by user: bound-constrained minimization
   Gradient tolerance for fast release     (>1.0=ignore):      1.0E-01
   Slack factor for variable release       (<1.0=ignore):      1.0E+03
   Gradient tolerance for standard release (>1.0=one-at-time): 1.0E-01
4. SECONDARY ALGORITHM SELECTION
   Hessian Cholesky method: Revised modified Cholesky of Schnabel and Eskew
   Cholesky pivoting: Pivoting enabled (probably un-necessarily)
   Hessian 'ellipticity' scaling: Scaled Hessian (user scale: xscale)
5. FINITE DIFFERENCE GRADIENT
   Hybrid FD/CD gradient: disabled
   Enhanced FD<->CD switches: disabled
----- END ALGORITHMIC SETTINGS: DMSL NEWTON OPTIMIZATION MODULE -----
*********************************************************************
automatic stepsize in getHx_macro...OK
iter[U]=,      0,  ,fx=, 1.26261446154830E+003  ,grad[f]=, 9.2787E-001  ,dx=, 0.0000E+000  ,dfObs=, 0.0000E+000  ,dfExp=, 0.0000E+000  ,fcalls=, 1.0000E+01  ,glob_code=, 0  ,gmeth_now=, 1  ,nfac=,  0,(, 0, x, 0.0,)  ,condH=,-1.798E+308  ,logdetH=,-1.798E+308  ,EinfH=,-1.798E+308,  ,trustRad=, 1.128E-003,  ,hitBound= no   nfree=,     3,  nfix=,     0,  nthaw=,     0,   xOpt:,  x1,(, 0,)=, 7.288591E-001,  x2,(, 0,)=,-7.533121E+000,  x3,(, 0,)=, 2.482599E+000,   
iter[U]=,      1,  ,fx=, 1.26103476866755E+003  ,grad[f]=, 3.5342E-002  ,dx=, 2.2540E-002  ,dfObs=, 1.2527E-003  ,dfExp=, 5.5589E-004  ,fcalls=, 1.9000E+01  ,glob_code=, 0  ,gmeth_now=, 1  ,nfac=, 13,(, 6, x, 2.2,)  ,condH=, 5.823E+002  ,logdetH=, 2.940E+001  ,EinfH=, 0.000E+000,  ,trustRad=, 7.220E-002,  ,hitBound= no   nfree=,     3,  nfix=,     0,  nthaw=,     0,   xOpt:,  x1,(, 0,)=, 7.176460E-001,  x2,(, 0,)=,-7.530058E+000,  x3,(, 0,)=, 2.427876E+000,   
SWITCH:FD->CD (ratio=-1.00) (iter=      1)
automatic stepsize in getHx_macro...OK
iter[U]=,      2,  ,fx=, 1.26098147074605E+003  ,grad[f]=, 5.1741E-002  ,dx=, 2.2964E-003  ,dfObs=, 4.2267E-005  ,dfExp=, 4.1159E-005  ,fcalls=, 3.8000E+01  ,glob_code=, 0  ,gmeth_now=, 2  ,nfac=,  1,(, 1, x, 1.0,)  ,condH=, 5.636E+002  ,logdetH=, 2.940E+001  ,EinfH=, 0.000E+000,  ,trustRad=, 7.220E-002,  ,hitBound= no   nfree=,     3,  nfix=,     0,  nthaw=,     0,   xOpt:,  x1,(, 0,)=, 7.170167E-001,  x2,(, 0,)=,-7.547390E+000,  x3,(, 0,)=, 2.426706E+000,   
iter[U]=,      3,  ,fx=, 1.26097835114598E+003  ,grad[f]=, 1.9240E-003  ,dx=, 7.0873E-004  ,dfObs=, 2.4740E-006  ,dfExp=, 2.4885E-006  ,fcalls=, 4.5000E+01  ,glob_code=, 0  ,gmeth_now=, 2  ,nfac=,  1,(, 1, x, 1.0,)  ,condH=, 5.886E+002  ,logdetH=, 2.938E+001  ,EinfH=, 0.000E+000,  ,trustRad=, 7.220E-002,  ,hitBound= no   nfree=,     3,  nfix=,     0,  nthaw=,     0,   xOpt:,  x1,(, 0,)=, 7.163294E-001,  x2,(, 0,)=,-7.548428E+000,  x3,(, 0,)=, 2.428427E+000,   
iter[U]=,      4,  ,fx=, 1.26097833800376E+003  ,grad[f]=, 9.6573E-005  ,dx=, 5.1430E-005  ,dfObs=, 1.0422E-008  ,dfExp=, 1.0653E-008  ,fcalls=, 5.2000E+01  ,glob_code=, 0  ,gmeth_now=, 2  ,nfac=,  1,(, 1, x, 1.0,)  ,condH=, 5.758E+002  ,logdetH=, 2.937E+001  ,EinfH=, 0.000E+000,  ,trustRad=, 9.674E-003,  ,hitBound= no   nfree=,     3,  nfix=,     0,  nthaw=,     0,   xOpt:,  x1,(, 0,)=, 7.162919E-001,  x2,(, 0,)=,-7.548613E+000,  x3,(, 0,)=, 2.428302E+000,   
iter[U]=,      5,  ,fx=, 1.26097833797275E+003  ,grad[f]=, 3.9375E-007  ,dx=, 3.1201E-006  ,dfObs=, 2.4591E-011  ,dfExp=, 2.7107E-011  ,fcalls=, 5.9000E+01  ,glob_code=, 0  ,gmeth_now=, 2  ,nfac=,  1,(, 1, x, 1.0,)  ,condH=, 6.091E+002  ,logdetH=, 2.939E+001  ,EinfH=, 0.000E+000,  ,trustRad=, 4.551E-004,  ,hitBound= no   nfree=,     3,  nfix=,     0,  nthaw=,     0,   xOpt:,  x1,(, 0,)=, 7.162927E-001,  x2,(, 0,)=,-7.548620E+000,  x3,(, 0,)=, 2.428309E+000,   
iter[U]=,      6,  ,fx=, 1.26097833797275E+003  ,grad[f]=, 3.6865E-007  ,dx=, 3.2865E-009  ,dfObs=, 5.4095E-016  ,dfExp=, 6.6543E-015  ,fcalls=, 6.8000E+01  ,glob_code=, 0  ,gmeth_now=, 2  ,nfac=,  5,(, 3, x, 1.7,)  ,condH=, 6.011E+002  ,logdetH=, 2.940E+001  ,EinfH=, 0.000E+000,  ,trustRad=, 6.181E-009,  ,hitBound= no   nfree=,     3,  nfix=,     0,  nthaw=,     0,   xOpt:,  x1,(, 0,)=, 7.162927E-001,  x2,(, 0,)=,-7.548620E+000,  x3,(, 0,)=, 2.428309E+000,   
---------------------------
ALGORITHM EXIT SUCCESSFUL
Error code: 0
Message: w-qnewton/prob.ok/df~0
---------------------------
I.   Termination information at the minimum
Function value at minimum:  fopt=    , 1.26097833797275E+003,
Scaled gradient at minimum: grad[f]= , 3.68652808464601E-007,
Gradient method at termination: Central difference approximation (default stepsize)
Final scaled step: dx= , 3.28647660752651E-009,
Final observed scaled function reduction: dfObs= , 5.40945871779468E-016,
Final expected scaled function reduction: dfExp= , 6.65430654023065E-015,
Total number of function calls: fcalls= ,68,
---------------------------
II.  Hessian information at the minimum (estimated)
Condition number of Hessian:      condH=   , 6.01121062616105E+002,
Log(e)-determinant of Hessian:    logDetH= , 2.93996606860532E+001,
Bound on the magnitude of the most negative Hessian eigenvalue: |Einf|= , 0.00000000000000E+000,
---------------------------
III. Constraint information at the minimum
Hit bound on last step: no 
Number of free variables:  nfree= ,3,
Number of fixed variables: nfix=  ,0,
Number of thawed variables (Lagrange<0): nthawn= ,0,
---------------------------
IV.  Function information at the minimum
Function minimum: fopt= , 1.26097833797275E+003,
xOpt:,  x1,(, 0,)=, 7.16292659447252E-001,  x2,(, 0,)=,-7.54861976836751E+000,  x3,(, 0,)=, 2.42830934350777E+000,   
gOpt:,  g1,(, 0,)=,-4.42241798737086E-008,  g2,(, 0,)=,-6.15825435604386E-005,  g3,(, 0,)=, 4.12165285253230E-005,   
hOpt:,  h1,(, 0,)=, 1.00569726017447E+004,  h2,(, 0,)=, 3.59057658568239E+002,  h3,(, 0,)=, 6.56244684627669E+002,   
---------------------------
Thnx 4 uzing d'z q-nutn, ketch u L8er ...
---------------------------
