Data modelled by SF_ISO
  P                       E                       Q                       C1Wv%Qstream            U1F1Wv%Qstrm            U1F1Wv%Qpcor          
    2.52950000000000E+01    1.48246000000000E+02    7.84271900000000E+00    1.36327654014333E-05    1.36327654014333E-05    2.52950000000000E+01
    8.38960000000000E+01    1.16872000000000E+02    7.92640400000000E+00    2.04380200873330E-03    2.04380200873330E-03    8.38960000000000E+01
    2.90400000000000E+01    7.41540000000000E+01    6.74514100000000E+00    9.68243068776145E-05    9.68243068776145E-05    2.90400000000000E+01
    1.15222000000000E+02    4.28360000000000E+01    1.16772200000000E+01    3.49686771691972E+00    3.49686771691972E+00    1.15222000000000E+02
    6.68170000000000E+01    2.37790000000000E+01    2.35097900000000E+01    8.00318273715340E+00    8.00318273715340E+00    6.68170000000000E+01
    1.82830000000000E+02    2.09980000000000E+01    3.13165700000000E+01    3.46361055452233E+01    3.46361055452233E+01    1.82830000000000E+02
    2.05601000000000E+02    3.22240000000000E+01    8.48438900000000E+01    7.12284228985282E+01    7.12284228985282E+01    2.05601000000000E+02
    1.42848000000000E+02    5.17060000000000E+01    1.02708300000000E+02    8.11170472941131E+01    8.11170472941131E+01    1.42848000000000E+02
    1.42711000000000E+02    7.96290000000000E+01    7.61029600000000E+01    8.24536778944110E+01    8.24536778944110E+01    1.42711000000000E+02
    8.65260000000000E+01    1.13660000000000E+02    7.91427900000000E+01    6.08547519320802E+01    6.08547519320802E+01    8.65260000000000E+01
    1.10852000000000E+02    1.48622000000000E+02    4.20257200000000E+01    4.66603239021874E+01    4.66603239021874E+01    1.10852000000000E+02
    6.89400000000000E+01    1.69479000000000E+02    2.63296700000000E+01    2.54324168226198E+01    2.54324168226198E+01    6.89400000000000E+01
    1.12630000000000E+01    1.82504000000000E+02    1.44926400000000E+01    4.79984226176093E+00    4.79984226176093E+00    1.12630000000000E+01
    1.36434000000000E+02    1.53048000000000E+02    1.82167200000000E+01    6.99871600073471E+00    6.99871600073471E+00    1.36434000000000E+02
    1.03149000000000E+02    1.18608000000000E+02    1.52669500000000E+01    8.25711416977683E+00    8.25711416977683E+00    1.03149000000000E+02
    1.16229000000000E+02    7.42580000000000E+01    2.04857700000000E+01    1.56849495087978E+01    1.56849495087978E+01    1.16229000000000E+02
    2.57740000000000E+01    4.29460000000000E+01    1.24504900000000E+01    1.26432592701874E+01    1.26432592701874E+01    2.57740000000000E+01
    4.54520000000000E+01    2.45160000000000E+01    1.35089300000000E+01    1.48598499810802E+01    1.48598499810802E+01    4.54520000000000E+01
    8.94070000000000E+01    2.19600000000000E+01    1.70848300000000E+01    2.47737626200608E+01    2.47737626200608E+01    8.94070000000000E+01
    1.34715000000000E+02    3.23500000000000E+01    2.76317700000000E+01    4.29309415568879E+01    4.29309415568879E+01    1.34715000000000E+02
    2.63130000000000E+01    5.14880000000000E+01    2.12735100000000E+01    3.12692859641423E+01    3.12692859641423E+01    2.63130000000000E+01
    1.30082000000000E+02    7.93600000000000E+01    4.16667600000000E+01    4.02967301697142E+01    4.02967301697142E+01    1.30082000000000E+02
    1.54425000000000E+02    1.13960000000000E+02    3.72796300000000E+01    4.78835154546397E+01    4.78835154546397E+01    1.54425000000000E+02
    9.91360000000000E+01    1.51877000000000E+02    2.58059400000000E+01    3.48030352984996E+01    3.48030352984996E+01    9.91360000000000E+01
    2.05850000000000E+01    1.66108000000000E+02    1.26742800000000E+01    1.14167273811180E+01    1.14167273811180E+01    2.05850000000000E+01
    8.76400000000000E+01    1.83372000000000E+02    1.23858800000000E+01    5.10106433475366E+00    5.10106433475366E+00    8.76400000000000E+01
    5.57820000000000E+01    1.49892000000000E+02    9.56904900000000E+00    1.10096170217714E+00    1.10096170217714E+00    5.57820000000000E+01
    3.03850000000000E+01    1.21898000000000E+02    5.76459100000000E+00    5.10142594786543E-04    5.10142594786543E-04    3.03850000000000E+01
    4.59040000000000E+01    7.68300000000000E+01    6.07506700000000E+00    4.29301990754437E-04    4.29301990754437E-04    4.59040000000000E+01
    2.83810000000000E+02    4.26160000000000E+01    7.01549500000000E+01    2.71550549653055E+01    2.71550549653055E+01    2.83810000000000E+02
    7.50600000000000E+01    2.38520000000000E+01    4.52985900000000E+01    3.33620596630726E+01    3.33620596630726E+01    7.50600000000000E+01
    1.24335000000000E+02    2.04320000000000E+01    5.17752600000000E+01    5.08053560885881E+01    5.08053560885881E+01    1.24335000000000E+02
    2.32835000000000E+02    2.95640000000000E+01    1.27490900000000E+02    9.57909804574863E+01    9.57909804574863E+01    2.32835000000000E+02
    1.05362000000000E+02    4.78940000000000E+01    8.77969700000000E+01    8.82301024491420E+01    8.82301024491420E+01    1.05362000000000E+02
    2.00215000000000E+02    7.65960000000000E+01    1.07080600000000E+02    1.06009116608271E+02    1.06009116608271E+02    2.00215000000000E+02
    5.48040000000000E+01    1.08496000000000E+02    6.67623600000000E+01    6.75601466890934E+01    6.75601466890934E+01    5.48040000000000E+01
    1.63661000000000E+02    1.33774000000000E+02    5.07182900000000E+01    6.76367377897123E+01    6.76367377897123E+01    1.63661000000000E+02
    5.62140000000000E+01    1.69624000000000E+02    3.65284500000000E+01    3.50577949644144E+01    3.50577949644144E+01    5.62140000000000E+01
    5.60090000000000E+01    1.75728000000000E+02    2.39134200000000E+01    1.56645010998418E+01    1.56645010998418E+01    5.60090000000000E+01
    2.57180000000000E+01    1.52803000000000E+02    1.32740000000000E+01    3.79759510333611E+00    3.79759510333611E+00    2.57180000000000E+01
    1.40158000000000E+02    1.20102000000000E+02    1.64118300000000E+01    8.91896320351577E+00    8.91896320351577E+00    1.40158000000000E+02
    1.17831000000000E+02    7.91740000000000E+01    2.26990000000000E+01    1.61495439485111E+01    1.61495439485111E+01    1.17831000000000E+02
    7.28140000000000E+01    4.58320000000000E+01    2.69304300000000E+01    2.00387885608023E+01    2.00387885608023E+01    7.28140000000000E+01
    5.46110000000000E+01    2.58240000000000E+01    1.73965100000000E+01    2.28557889770304E+01    2.28557889770304E+01    5.46110000000000E+01
    1.31632000000000E+02    2.06570000000000E+01    4.91374600000000E+01    4.21772262221778E+01    4.21772262221778E+01    1.31632000000000E+02
    1.13238000000000E+02    2.95960000000000E+01    5.29911900000000E+01    5.42092586508667E+01    5.42092586508667E+01    1.13238000000000E+02
    1.06945000000000E+02    4.86680000000000E+01    4.24140300000000E+01    5.87942754456391E+01    5.87942754456391E+01    1.06945000000000E+02
    3.91620000000000E+01    7.94920000000000E+01    3.35685400000000E+01    4.01670180318564E+01    4.01670180318564E+01    3.91620000000000E+01
    6.02760000000000E+01    1.17320000000000E+02    2.33032200000000E+01    2.68032331235718E+01    2.68032331235718E+01    6.02760000000000E+01
    1.75380000000000E+02    1.41882000000000E+02    2.30263000000000E+01    3.64118744297087E+01    3.64118744297087E+01    1.75380000000000E+02
    1.47193000000000E+02    1.70716000000000E+02    2.76808000000000E+01    3.39507054959967E+01    3.39507054959967E+01    1.47193000000000E+02
    1.29032000000000E+02    1.69663000000000E+02    2.26406100000000E+01    2.85536714909202E+01    2.85536714909202E+01    1.29032000000000E+02
    8.59470000000000E+01    1.49152000000000E+02    2.75629700000000E+01    1.95045995702948E+01    1.95045995702948E+01    8.59470000000000E+01
    1.01520000000000E+01    1.22964000000000E+02    1.40146800000000E+01    6.17980832687416E+00    6.17980832687416E+00    1.01520000000000E+01
    5.02780000000000E+01    8.21030000000000E+01    1.29218900000000E+01    4.75640900998498E+00    4.75640900998498E+00    5.02780000000000E+01
    4.00140000000000E+01    4.61880000000000E+01    1.13571200000000E+01    4.95607256642544E+00    4.95607256642544E+00    4.00140000000000E+01
    1.71755000000000E+02    2.60680000000000E+01    3.29994500000000E+01    2.63656597279166E+01    2.63656597279166E+01    1.71755000000000E+02
    3.15490000000000E+01    2.14060000000000E+01    2.09504500000000E+01    2.44585650355664E+01    2.44585650355664E+01    3.15490000000000E+01
    1.51491000000000E+02    2.95690000000000E+01    4.95213500000000E+01    4.70222720683679E+01    4.70222720683679E+01    1.51491000000000E+02
    1.02421000000000E+02    4.70600000000000E+01    4.89442600000000E+01    5.23229619590776E+01    5.23229619590776E+01    1.02421000000000E+02
    1.17428000000000E+02    7.42020000000000E+01    3.88787400000000E+01    5.53346828361194E+01    5.53346828361194E+01    1.17428000000000E+02
    8.81870000000000E+01    1.04205000000000E+02    3.93306200000000E+01    4.50878069627738E+01    4.50878069627738E+01    8.81870000000000E+01
    5.73840000000000E+01    1.41228000000000E+02    2.51768100000000E+01    2.61170326200748E+01    2.61170326200748E+01    5.73840000000000E+01
    1.37126000000000E+02    1.66824000000000E+02    2.93959900000000E+01    2.45248175110398E+01    2.45248175110398E+01    1.37126000000000E+02
    8.33150000000000E+01    1.71140000000000E+02    2.27183100000000E+01    1.39225842799192E+01    1.39225842799192E+01    8.33150000000000E+01
    7.05190000000000E+01    1.51669000000000E+02    1.58805100000000E+01    7.23721950538262E+00    7.23721950538262E+00    7.05190000000000E+01
    2.16760000000000E+01    1.24088000000000E+02    9.60633000000000E+00    1.25186862508176E+00    1.25186862508176E+00    2.16760000000000E+01
    4.15830000000000E+01    8.29480000000000E+01    1.01462900000000E+01    4.87730362715161E-01    4.87730362715161E-01    4.15830000000000E+01
    6.99030000000000E+01    4.90940000000000E+01    1.03422100000000E+01    2.09554940900909E+00    2.09554940900909E+00    6.99030000000000E+01
    1.28317000000000E+02    2.80740000000000E+01    1.62820200000000E+01    1.31696722751322E+01    1.31696722751322E+01    1.28317000000000E+02
    1.13806000000000E+02    2.04690000000000E+01    2.07465700000000E+01    2.77490099516694E+01    2.77490099516694E+01    1.13806000000000E+02
    8.14300000000000E+01    2.81640000000000E+01    3.16859300000000E+01    3.45758940192562E+01    3.45758940192562E+01    8.14300000000000E+01
    1.31923000000000E+02    4.62770000000000E+01    4.80281900000000E+01    4.92397998166356E+01    4.92397998166356E+01    1.31923000000000E+02
    1.01679000000000E+02    7.50200000000000E+01    3.60812000000000E+01    4.89241608718626E+01    4.89241608718626E+01    1.01679000000000E+02
    5.65370000000000E+01    1.14006000000000E+02    2.50382900000000E+01    3.22387948630656E+01    3.22387948630656E+01    5.65370000000000E+01
    8.08600000000000E+01    1.36444000000000E+02    2.51896000000000E+01    2.27401618385581E+01    2.27401618385581E+01    8.08600000000000E+01
    8.54110000000000E+01    1.72956000000000E+02    1.80983100000000E+01    1.28862854830245E+01    1.28862854830245E+01    8.54110000000000E+01
    3.86860000000000E+01    1.71931000000000E+02    1.05578000000000E+01    2.53687135600479E+00    2.53687135600479E+00    3.86860000000000E+01
    2.14000000000000E+01    1.52624000000000E+02    7.99842500000000E+00    3.93843839306661E-04    3.93843839306661E-04    2.14000000000000E+01
    6.07260000000000E+01    1.26686000000000E+02    7.06685000000000E+00    1.64182856089324E-04    1.64182856089324E-04    6.07260000000000E+01
    5.83970000000000E+01    8.78340000000000E+01    6.66386300000000E+00    8.17856381328802E-04    8.17856381328802E-04    5.83970000000000E+01
    9.93780000000000E+01    5.04840000000000E+01    1.02231800000000E+01    2.05207039912010E+00    2.05207039912010E+00    9.93780000000000E+01
    8.72020000000000E+01    2.78930000000000E+01    1.30856300000000E+01    7.81771329785392E+00    7.81771329785392E+00    8.72020000000000E+01
    1.70755000000000E+02    1.98440000000000E+01    3.53809200000000E+01    3.19797123815813E+01    3.19797123815813E+01    1.70755000000000E+02
    2.93039000000000E+02    2.62600000000000E+01    1.41008900000000E+02    9.52977945602087E+01    9.52977945602087E+01    2.93039000000000E+02
    1.01884000000000E+02    4.32400000000000E+01    8.15862400000000E+01    8.78557386439236E+01    8.78557386439236E+01    1.01884000000000E+02
    2.14013000000000E+02    6.96860000000000E+01    1.21514100000000E+02    1.11799520225419E+02    1.11799520225419E+02    2.14013000000000E+02
    1.69998000000000E+02    9.76360000000000E+01    1.17151100000000E+02    1.07986283380352E+02    1.07986283380352E+02    1.69998000000000E+02
    2.58360000000000E+01    1.40420000000000E+02    5.35664500000000E+01    5.49712373720545E+01    5.49712373720545E+01    2.58360000000000E+01
    7.58150000000000E+01    1.58256000000000E+02    3.10456300000000E+01    3.34607265601982E+01    3.34607265601982E+01    7.58150000000000E+01
    6.83000000000000E-01    1.70507000000000E+02    1.75039800000000E+01    7.92427399749301E+00    7.92427399749301E+00    6.83000000000000E-01
    4.08900000000000E+00    1.61152000000000E+02    9.70607700000000E+00    6.64790775269389E-02    6.64790775269389E-02    4.08900000000000E+00
    5.44900000000000E+00    1.31784000000000E+02    6.24863300000000E+00    4.91742551693898E-06    4.91742551693898E-06    5.44900000000000E+00
    1.44790000000000E+01    8.78610000000000E+01    5.88419000000000E+00    8.95521315993121E-06    8.95521315993121E-06    1.44790000000000E+01
    4.28550000000000E+01    5.02880000000000E+01    8.31641900000000E+00    2.53679020942378E-02    2.53679020942378E-02    4.28550000000000E+01
    6.21360000000000E+01    2.92000000000000E+01    1.00447700000000E+01    1.16357433552850E+00    1.16357433552850E+00    6.21360000000000E+01
    3.92870000000000E+01    2.01800000000000E+01    8.72028200000000E+00    2.52998432530976E+00    2.52998432530976E+00    3.92870000000000E+01
    8.27310000000000E+01    2.66770000000000E+01    1.19723600000000E+01    8.19562634179213E+00    8.19562634179213E+00    8.27310000000000E+01
    1.55488000000000E+02    4.44680000000000E+01    2.80966600000000E+01    2.60397640915337E+01    2.60397640915337E+01    1.55488000000000E+02
    6.69240000000000E+01    7.40160000000000E+01    2.63196300000000E+01    2.37786145968416E+01    2.37786145968416E+01    6.69240000000000E+01
    1.35262000000000E+02    1.10572000000000E+02    1.74099600000000E+01    2.99760346881793E+01    2.99760346881793E+01    1.35262000000000E+02
    1.04114000000000E+02    1.34386000000000E+02    1.88598200000000E+01    2.56663651215299E+01    2.56663651215299E+01    1.04114000000000E+02
    6.98520000000000E+01    1.72193000000000E+02    1.87121400000000E+01    1.25977055909080E+01    1.25977055909080E+01    6.98520000000000E+01
    1.38430000000000E+01    1.79000000000000E+02    7.29717700000000E+00    8.19584412158513E-01    8.19584412158513E-01    1.38430000000000E+01
    9.68280000000000E+01    1.56373000000000E+02    7.56912300000000E+00    3.02415514323707E-01    3.02415514323707E-01    9.68280000000000E+01
    1.57787000000000E+02    1.25930000000000E+02    1.56763600000000E+01    4.03438866099561E+00    4.03438866099561E+00    1.57787000000000E+02
    1.86460000000000E+01    8.88600000000000E+01    9.70693900000000E+00    9.11434162626761E-01    9.11434162626761E-01    1.86460000000000E+01
    7.85960000000000E+01    5.18560000000000E+01    1.27922000000000E+01    3.34642408188068E+00    3.34642408188068E+00    7.85960000000000E+01
    1.23829000000000E+02    2.90570000000000E+01    2.48654400000000E+01    1.48461626181963E+01    1.48461626181963E+01    1.23829000000000E+02
    1.00917000000000E+02    1.95860000000000E+01    2.71052300000000E+01    2.72649767823244E+01    2.72649767823244E+01    1.00917000000000E+02
    9.08410000000000E+01    2.51440000000000E+01    3.61768600000000E+01    3.66321172148706E+01    3.66321172148706E+01    9.08410000000000E+01
    1.63260000000000E+02    4.15910000000000E+01    7.00162600000000E+01    5.99177542742923E+01    5.99177542742923E+01    1.63260000000000E+02
    1.47716000000000E+02    6.70720000000000E+01    7.23815900000000E+01    7.06676998623017E+01    7.06676998623017E+01    1.47716000000000E+02
    9.44210000000000E+01    1.03684000000000E+02    5.62413400000000E+01    5.71214363991715E+01    5.71214363991715E+01    9.44210000000000E+01
    1.51014000000000E+02    1.34598000000000E+02    6.50705100000000E+01    5.64739577571469E+01    5.64739577571469E+01    1.51014000000000E+02
    1.46222000000000E+02    1.62176000000000E+02    5.13536100000000E+01    4.98515379357255E+01    4.98515379357255E+01    1.46222000000000E+02
    1.32370000000000E+01    1.71542000000000E+02    2.74077300000000E+01    1.72138502915712E+01    1.72138502915712E+01    1.32370000000000E+01
    5.95210000000000E+01    1.59170000000000E+02    1.55738200000000E+01    7.43911197946475E+00    7.43911197946475E+00    5.95210000000000E+01
    3.86880000000000E+01    1.29038000000000E+02    1.05347800000000E+01    2.09083027644363E+00    2.09083027644363E+00    3.86880000000000E+01
    4.25200000000000E+00    9.26330000000000E+01    7.51542300000000E+00    2.17704847099069E-03    2.17704847099069E-03    4.25200000000000E+00
    1.46500000000000E+00    5.63110000000000E+01    6.42029700000000E+00    1.05495585077916E-06    1.05495585077916E-06    1.46500000000000E+00
    4.21690000000000E+01    3.21160000000000E+01    8.43390800000000E+00    1.90563239522837E-01    1.90563239522837E-01    4.21690000000000E+01
    3.75690000000000E+01    2.14000000000000E+01    8.18783100000000E+00    8.59848664114013E-01    8.59848664114013E-01    3.75690000000000E+01
    4.09570000000000E+01    2.58100000000000E+01    8.97662700000000E+00    1.95482810097222E+00    1.95482810097222E+00    4.09570000000000E+01
    1.52091000000000E+02    4.09280000000000E+01    1.71231900000000E+01    1.49928326689968E+01    1.49928326689968E+01    1.52091000000000E+02
    6.60420000000000E+01    6.70320000000000E+01    1.59286200000000E+01    1.54537936761397E+01    1.54537936761397E+01    6.60420000000000E+01
    4.65630000000000E+01    1.11384000000000E+02    9.66426400000000E+00    8.80082297605497E+00    8.80082297605497E+00    4.65630000000000E+01
    2.35320000000000E+01    1.38959000000000E+02    5.85961400000000E+00    1.41523383240237E+00    1.41523383240237E+00    2.35320000000000E+01
    1.02100000000000E+01    1.65797000000000E+02    3.55353600000000E+00    7.06764452057442E-05    7.06764452057442E-05    1.02100000000000E+01
    4.52730000000000E+01    1.77312000000000E+02    3.30772700000000E+00    2.57948614944623E-05    2.57948614944623E-05    4.52730000000000E+01
    2.02800000000000E+01    1.68244000000000E+02    2.14683500000000E+00    4.53433287610620E-06    4.53433287610620E-06    2.02800000000000E+01
    1.19600000000000E+00    1.40384000000000E+02    1.25029700000000E+00    2.16962403107773E-08    2.16962403107773E-08    1.19600000000000E+00
    4.56830000000000E+01    1.00289000000000E+02    1.80395200000000E+00    1.29575296322302E-04    1.29575296322302E-04    4.56830000000000E+01
    2.59435000000000E+02    5.71590000000000E+01    7.37228800000000E+00    2.07118394483453E+01    2.07118394483453E+01    2.59435000000000E+02
    2.89313000000000E+02    3.00920000000000E+01    7.86731400000000E+01    7.89417735931291E+01    7.89417735931291E+01    2.89313000000000E+02
    4.57700000000000E+01    1.90620000000000E+01    3.39318000000000E+01    6.58006234805793E+01    6.58006234805793E+01    4.57700000000000E+01
    7.07830000000000E+01    2.35760000000000E+01    2.55775600000000E+01    6.25994504772252E+01    6.25994504772252E+01    7.07830000000000E+01
    1.80365000000000E+02    3.82760000000000E+01    9.10805800000000E+01    8.82873744358411E+01    8.82873744358411E+01    1.80365000000000E+02
    2.42390000000000E+01    6.51560000000000E+01    4.68991400000000E+01    5.72593626434125E+01    5.72593626434125E+01    2.42390000000000E+01
    1.60807000000000E+02    1.00620000000000E+02    7.00280800000000E+01    6.55833923669092E+01    6.55833923669092E+01    1.60807000000000E+02
    1.54572000000000E+02    1.30051000000000E+02    9.88055000000000E+01    6.44579212427260E+01    6.44579212427260E+01    1.54572000000000E+02
    3.78620000000000E+01    1.59922000000000E+02    3.42453500000000E+01    3.09027544678505E+01    3.09027544678505E+01    3.78620000000000E+01
    1.18838000000000E+02    1.76098000000000E+02    2.24173100000000E+01    2.35349161382098E+01    2.35349161382098E+01    1.18838000000000E+02
    1.05248000000000E+02    1.65013000000000E+02    1.37436800000000E+01    1.72834919171330E+01    1.72834919171330E+01    1.05248000000000E+02
    5.88210000000000E+01    1.33675000000000E+02    1.19605500000000E+01    9.55105992107417E+00    9.55105992107417E+00    5.88210000000000E+01
    1.68873000000000E+02    9.67520000000000E+01    2.50737600000000E+01    2.34115151171320E+01    2.34115151171320E+01    1.68873000000000E+02
    1.48747000000000E+02    5.67160000000000E+01    2.94676700000000E+01    4.07633373735319E+01    4.07633373735319E+01    1.48747000000000E+02
    1.51654000000000E+02    3.19200000000000E+01    3.61306500000000E+01    6.25054653930712E+01    6.25054653930712E+01    1.51654000000000E+02
    1.32932000000000E+02    1.97540000000000E+01    4.40794900000000E+01    7.81301592936614E+01    7.81301592936614E+01    1.32932000000000E+02
    1.00613000000000E+02    2.46180000000000E+01    7.53314900000000E+01    7.95342888409135E+01    7.95342888409135E+01    1.00613000000000E+02
    9.26310000000000E+01    4.18040000000000E+01    5.49014700000000E+01    7.46944623637682E+01    7.46944623637682E+01    9.26310000000000E+01
    1.26045000000000E+02    6.20540000000000E+01    6.65589300000000E+01    7.66640697546732E+01    7.66640697546732E+01    1.26045000000000E+02
    4.16730000000000E+01    1.03604000000000E+02    4.38037400000000E+01    4.77796440491100E+01    4.77796440491100E+01    4.16730000000000E+01
    1.95143000000000E+02    1.30588000000000E+02    4.89136100000000E+01    6.13914842574622E+01    6.13914842574622E+01    1.95143000000000E+02
    5.54120000000000E+01    1.57472000000000E+02    2.66795800000000E+01    3.31467861345826E+01    3.31467861345826E+01    5.54120000000000E+01
    1.15558000000000E+02    1.66173000000000E+02    2.53259100000000E+01    2.58503609907855E+01    2.58503609907855E+01    1.15558000000000E+02
    5.73760000000000E+01    1.58620000000000E+02    1.75039400000000E+01    1.23238270353978E+01    1.23238270353978E+01    5.73760000000000E+01
    3.26820000000000E+01    1.32132000000000E+02    1.24910100000000E+01    3.98712410216469E+00    3.98712410216469E+00    3.26820000000000E+01
    9.23720000000000E+01    9.57180000000000E+01    1.28056000000000E+01    5.80798015392243E+00    5.80798015392243E+00    9.23720000000000E+01
    1.38109000000000E+02    5.78450000000000E+01    3.11823200000000E+01    1.78097822097254E+01    1.78097822097254E+01    1.38109000000000E+02
    8.26980000000000E+01    3.21560000000000E+01    3.05397000000000E+01    2.51288381659393E+01    2.51288381659393E+01    8.26980000000000E+01
    1.35120000000000E+02    1.96920000000000E+01    4.60007000000000E+01    4.55080684506074E+01    4.55080684506074E+01    1.35120000000000E+02
    4.11890000000000E+01    2.28340000000000E+01    3.88540900000000E+01    4.07209400135557E+01    4.07209400135557E+01    4.11890000000000E+01
    2.17381000000000E+02    3.83320000000000E+01    9.03801500000000E+01    7.94946133669608E+01    7.94946133669608E+01    2.17381000000000E+02
    1.97104000000000E+02    6.16540000000000E+01    1.22062900000000E+02    1.01803144742107E+02    1.01803144742107E+02    1.97104000000000E+02
    1.10503000000000E+02    1.00336000000000E+02    8.78129300000000E+01    8.24990868875782E+01    8.24990868875782E+01    1.10503000000000E+02
    1.79360000000000E+02    1.28639000000000E+02    8.06975500000000E+01    8.38914548463738E+01    8.38914548463738E+01    1.79360000000000E+02
    1.19674000000000E+02    1.60021000000000E+02    5.45396400000000E+01    6.17468712422643E+01    6.17468712422643E+01    1.19674000000000E+02
    6.67450000000000E+01    1.72620000000000E+02    2.88586800000000E+01    3.34544826995236E+01    3.34544826995236E+01    6.67450000000000E+01
    2.08648000000000E+02    1.60921000000000E+02    3.06724400000000E+01    4.69261924099253E+01    4.69261924099253E+01    2.08648000000000E+02
    1.39050000000000E+01    1.33811000000000E+02    1.92944000000000E+01    2.02846595523781E+01    2.02846595523781E+01    1.39050000000000E+01
    3.59140000000000E+01    1.01326000000000E+02    1.41704300000000E+01    1.15420248372870E+01    1.15420248372870E+01    3.59140000000000E+01
    1.64632000000000E+02    5.92440000000000E+01    3.48312900000000E+01    3.03183966407920E+01    3.03183966407920E+01    1.64632000000000E+02
    7.06950000000000E+01    3.21040000000000E+01    3.58353500000000E+01    3.39052777769438E+01    3.39052777769438E+01    7.06950000000000E+01
    2.81090000000000E+01    1.87560000000000E+01    3.01894800000000E+01    2.99459813733246E+01    2.99459813733246E+01    2.81090000000000E+01
    6.33210000000000E+01    2.17560000000000E+01    2.75897300000000E+01    3.36021489838808E+01    3.36021489838808E+01    6.33210000000000E+01
    1.05195000000000E+02    3.76880000000000E+01    3.90794100000000E+01    4.34770681166521E+01    4.34770681166521E+01    1.05195000000000E+02
    9.40070000000000E+01    6.26880000000000E+01    6.26756900000000E+01    4.47920592009130E+01    4.47920592009130E+01    9.40070000000000E+01
    8.32160000000000E+01    9.55880000000000E+01    4.34047100000000E+01    3.79476327984914E+01    3.79476327984914E+01    8.32160000000000E+01
    1.10770000000000E+02    1.22828000000000E+02    3.86840300000000E+01    3.46639036108040E+01    3.46639036108040E+01    1.10770000000000E+02
    5.04610000000000E+01    1.54128000000000E+02    2.88069100000000E+01    1.69896550499937E+01    1.69896550499937E+01    5.04610000000000E+01
    2.40700000000000E+02    1.67208000000000E+02    4.39059900000000E+01    3.66727636232658E+01    3.66727636232658E+01    2.40700000000000E+02
    4.86740000000000E+01    1.57268000000000E+02    2.64243800000000E+01    1.75168021855876E+01    1.75168021855876E+01    4.86740000000000E+01
    1.17161000000000E+02    1.32800000000000E+02    2.06020100000000E+01    1.82516889401143E+01    1.82516889401143E+01    1.17161000000000E+02
    1.79780000000000E+01    1.02268000000000E+02    1.27410300000000E+01    7.95702954013535E+00    7.95702954013535E+00    1.79780000000000E+01
    4.61230000000000E+01    6.13040000000000E+01    1.47780200000000E+01    7.31044087383898E+00    7.31044087383898E+00    4.61230000000000E+01
    7.60240000000000E+01    3.51080000000000E+01    1.78979200000000E+01    1.28002374735303E+01    1.28002374735303E+01    7.60240000000000E+01
    4.89520000000000E+01    1.93150000000000E+01    1.39911400000000E+01    1.61118799423104E+01    1.61118799423104E+01    4.89520000000000E+01
    6.11720000000000E+01    2.22040000000000E+01    2.51970000000000E+01    2.09121900968605E+01    2.09121900968605E+01    6.11720000000000E+01
    1.05542000000000E+02    3.86100000000000E+01    3.33692000000000E+01    3.17251649226422E+01    3.17251649226422E+01    1.05542000000000E+02
    9.92490000000000E+01    6.48040000000000E+01    4.04626400000000E+01    3.61772008126297E+01    3.61772008126297E+01    9.92490000000000E+01
    5.11240000000000E+01    9.86580000000000E+01    2.00244000000000E+01    2.49376782784437E+01    2.49376782784437E+01    5.11240000000000E+01
    7.09580000000000E+01    1.27486000000000E+02    1.52723600000000E+01    1.70913061380572E+01    1.70913061380572E+01    7.09580000000000E+01
    3.40790000000000E+01    1.61356000000000E+02    1.00673300000000E+01    4.65158218645432E+00    4.65158218645432E+00    3.40790000000000E+01
    4.26140000000000E+01    1.82115000000000E+02    5.36695400000000E+00    1.96775881602733E-02    1.96775881602733E-02    4.26140000000000E+01
    1.74521000000000E+02    1.72980000000000E+02    1.73311400000000E+01    1.60105775031449E+00    1.60105775031449E+00    1.74521000000000E+02
    4.65050000000000E+01    1.37556000000000E+02    8.49641900000000E+00    5.54986641073244E-03    5.54986641073244E-03    4.65050000000000E+01
    6.60880000000000E+01    1.04587000000000E+02    8.76667200000000E+00    7.59870718313256E-04    7.59870718313256E-04    6.60880000000000E+01
    1.21486000000000E+02    6.38370000000000E+01    1.68873000000000E+01    2.89046050904230E+00    2.89046050904230E+00    1.21486000000000E+02
    4.09860000000000E+01    3.50260000000000E+01    1.49157500000000E+01    3.90240123442472E+00    3.90240123442472E+00    4.09860000000000E+01
    1.41725000000000E+02    1.89840000000000E+01    3.68851400000000E+01    1.98898703886366E+01    1.98898703886366E+01    1.41725000000000E+02
    1.35284000000000E+02    2.37160000000000E+01    5.34043800000000E+01    3.93392774161767E+01    3.93392774161767E+01    1.35284000000000E+02
    7.36050000000000E+01    3.77410000000000E+01    4.29137300000000E+01    4.09689155352228E+01    4.09689155352228E+01    7.36050000000000E+01
    1.97253000000000E+02    6.19740000000000E+01    1.06707700000000E+02    6.92279151186688E+01    6.92279151186688E+01    1.97253000000000E+02
    1.52860000000000E+02    9.55840000000000E+01    5.63471800000000E+01    7.34651062694534E+01    7.34651062694534E+01    1.52860000000000E+02
    1.64705000000000E+02    1.24435000000000E+02    7.27419200000000E+01    7.40612019592356E+01    7.40612019592356E+01    1.64705000000000E+02
    7.18680000000000E+01    1.53981000000000E+02    5.93445300000000E+01    4.48234311610119E+01    4.48234311610119E+01    7.18680000000000E+01
    2.46402000000000E+02    1.72016000000000E+02    4.41123800000000E+01    6.46280480512586E+01    6.46280480512586E+01    2.46402000000000E+02
    1.92760000000000E+01    1.66460000000000E+02    2.72951000000000E+01    2.64064581513912E+01    2.64064581513912E+01    1.92760000000000E+01
    6.83850000000000E+01    1.39371000000000E+02    1.53916600000000E+01    1.63374741910831E+01    1.63374741910831E+01    6.83850000000000E+01
    6.89340000000000E+01    1.10038000000000E+02    1.27792300000000E+01    1.24551344957671E+01    1.24551344957671E+01    6.89340000000000E+01
    2.69981000000000E+02    6.36280000000000E+01    4.47171500000000E+01    5.50145948338427E+01    5.50145948338427E+01    2.69981000000000E+02
    9.14110000000000E+01    3.65110000000000E+01    4.02186600000000E+01    5.76393998709736E+01    5.76393998709736E+01    9.14110000000000E+01
    3.27780000000000E+01    1.90960000000000E+01    2.25399100000000E+01    4.80053764998191E+01    4.80053764998191E+01    3.27780000000000E+01
    2.40266000000000E+02    2.18770000000000E+01    9.45811400000000E+01    9.71143366976312E+01    9.71143366976312E+01    2.40266000000000E+02
    1.12508000000000E+02    3.57560000000000E+01    9.87182500000000E+01    9.39496700409453E+01    9.39496700409453E+01    1.12508000000000E+02
    2.96836000000000E+02    5.67840000000000E+01    1.49835600000000E+02    1.48154178774488E+02    1.48154178774488E+02    2.96836000000000E+02
    2.45612000000000E+02    8.98180000000000E+01    1.45439600000000E+02    1.60177628254973E+02    1.60177628254973E+02    2.45612000000000E+02
    7.62810000000000E+01    1.19420000000000E+02    1.00579100000000E+02    1.02040206711890E+02    1.02040206711890E+02    7.62810000000000E+01
    5.13650000000000E+01    1.49478000000000E+02    4.80117100000000E+01    5.66052562971785E+01    5.66052562971785E+01    5.13650000000000E+01
    3.47450000000000E+01    1.68656000000000E+02    2.49226300000000E+01    2.47925274871565E+01    2.47925274871565E+01    3.47450000000000E+01
    3.48790000000000E+01    1.65020000000000E+02    1.74318900000000E+01    8.27562707928977E+00    8.27562707928977E+00    3.48790000000000E+01
    1.26068000000000E+02    1.38704000000000E+02    1.93514300000000E+01    1.05483296581742E+01    1.05483296581742E+01    1.26068000000000E+02
    7.68580000000000E+01    1.05004000000000E+02    1.60205900000000E+01    9.42077869493537E+00    9.42077869493537E+00    7.68580000000000E+01
    5.82070000000000E+01    6.45770000000000E+01    1.38280200000000E+01    9.73552139848394E+00    9.73552139848394E+00    5.82070000000000E+01
    1.00082000000000E+02    3.66520000000000E+01    2.78018100000000E+01    1.91437224447907E+01    1.91437224447907E+01    1.00082000000000E+02
    7.67140000000000E+01    1.94320000000000E+01    1.81815500000000E+01    2.70067259404220E+01    2.70067259404220E+01    7.67140000000000E+01
    2.12402000000000E+02    2.33060000000000E+01    8.52829900000000E+01    6.65919912188884E+01    6.65919912188884E+01    2.12402000000000E+02
    1.07081000000000E+02    3.60470000000000E+01    5.71422700000000E+01    7.06328369886842E+01    7.06328369886842E+01    1.07081000000000E+02
    1.66250000000000E+02    6.00920000000000E+01    1.09359300000000E+02    8.58012352510201E+01    8.58012352510201E+01    1.66250000000000E+02
    1.39256000000000E+02    9.01020000000000E+01    8.96144900000000E+01    8.25165738131329E+01    8.25165738131329E+01    1.39256000000000E+02
    1.86287000000000E+02    1.22882000000000E+02    1.58601400000000E+02    8.71974043024523E+01    8.71974043024523E+01    1.86287000000000E+02
    2.96760000000000E+01    1.57501000000000E+02    4.70268100000000E+01    4.18489296759619E+01    4.18489296759619E+01    2.96760000000000E+01
    1.02999000000000E+02    1.74466000000000E+02    3.21084200000000E+01    2.82612172259856E+01    2.82612172259856E+01    1.02999000000000E+02
    7.81580000000000E+01    1.64948000000000E+02    2.28339800000000E+01    1.62095880380661E+01    1.62095880380661E+01    7.81580000000000E+01
    7.39080000000000E+01    1.41656000000000E+02    1.74840300000000E+01    1.00096292561689E+01    1.00096292561689E+01    7.39080000000000E+01
    3.46290000000000E+01    1.13331000000000E+02    1.19966900000000E+01    4.01301059361767E+00    4.01301059361767E+00    3.46290000000000E+01
    6.11810000000000E+01    6.68240000000000E+01    1.37774700000000E+01    4.83115802734310E+00    4.83115802734310E+00    6.11810000000000E+01
    2.59990000000000E+01    3.62600000000000E+01    1.12279000000000E+01    4.39992724398546E+00    4.39992724398546E+00    2.59990000000000E+01
    2.43760000000000E+01    2.05560000000000E+01    1.07041500000000E+01    4.87220852742775E+00    4.87220852742775E+00    2.43760000000000E+01
    3.83860000000000E+01    2.21800000000000E+01    1.18969400000000E+01    6.61462963950611E+00    6.61462963950611E+00    3.83860000000000E+01
    8.40230000000000E+01    3.48950000000000E+01    2.00927800000000E+01    1.31415012955876E+01    1.31415012955876E+01    8.40230000000000E+01
    1.08619000000000E+02    5.58240000000000E+01    2.32519300000000E+01    2.20390831137750E+01    2.20390831137750E+01    1.08619000000000E+02
    2.34393000000000E+02    8.45920000000000E+01    4.82602800000000E+01    5.50575257247123E+01    5.50575257247123E+01    2.34393000000000E+02
    1.15464000000000E+02    1.14514000000000E+02    5.28118600000000E+01    4.96680822706610E+01    4.96680822706610E+01    1.15464000000000E+02
    3.20840000000000E+01    1.46511000000000E+02    2.04609700000000E+01    2.34058432801318E+01    2.34058432801318E+01    3.20840000000000E+01
    4.33420000000000E+01    1.70880000000000E+02    1.24383700000000E+01    8.05663298032828E+00    8.05663298032828E+00    4.33420000000000E+01
    2.61580000000000E+01    1.72560000000000E+02    7.49591400000000E+00    3.52447349489764E-01    3.52447349489764E-01    2.61580000000000E+01
    1.69814000000000E+02    1.46863000000000E+02    7.80748900000000E+00    3.94526501156263E+00    3.94526501156263E+00    1.69814000000000E+02
    7.62500000000000E+01    1.12292000000000E+02    1.24081300000000E+01    3.29296340679236E+00    3.29296340679236E+00    7.62500000000000E+01
    6.66480000000000E+01    6.62200000000000E+01    1.17488600000000E+01    4.62091616471181E+00    4.62091616471181E+00    6.66480000000000E+01
    1.21579000000000E+02    3.52240000000000E+01    1.60174300000000E+01    1.59585253211676E+01    1.59585253211676E+01    1.21579000000000E+02
    1.21925000000000E+02    2.03490000000000E+01    4.13065400000000E+01    3.26079917386833E+01    3.26079917386833E+01    1.21925000000000E+02
    7.54770000000000E+01    2.10480000000000E+01    5.13763400000000E+01    3.85790756944781E+01    3.85790756944781E+01    7.54770000000000E+01
    1.05299000000000E+02    3.54080000000000E+01    5.72890800000000E+01    4.81687251642304E+01    4.81687251642304E+01    1.05299000000000E+02
    9.10470000000000E+01    5.58110000000000E+01    3.89830800000000E+01    4.88716653438142E+01    4.88716653438142E+01    9.10470000000000E+01
    3.52290000000000E+01    9.00210000000000E+01    2.81319500000000E+01    3.13563984780384E+01    3.13563984780384E+01    3.52290000000000E+01
    2.17720000000000E+01    1.24552000000000E+02    1.74039100000000E+01    1.39275964642653E+01    1.39275964642653E+01    2.17720000000000E+01
    1.94380000000000E+01    1.53884000000000E+02    1.11581400000000E+01    2.52837416481617E+00    2.52837416481617E+00    1.94380000000000E+01
    6.97120000000000E+01    1.74300000000000E+02    7.62809800000000E+00    1.03767984714910E-01    1.03767984714910E-01    6.97120000000000E+01
    9.61970000000000E+01    1.69480000000000E+02    8.68450200000000E+00    6.89843441448629E-04    6.89843441448629E-04    9.61970000000000E+01
    3.57600000000000E+00    1.47756000000000E+02    4.57569100000000E+00    2.71480173608676E-07    2.71480173608676E-07    3.57600000000000E+00
    1.38081000000000E+02    1.19466000000000E+02    7.62625600000000E+00    1.37851333845394E+00    1.37851333845394E+00    1.38081000000000E+02
    6.64280000000000E+01    6.77880000000000E+01    7.95304600000000E+00    2.34257056014887E+00    2.34257056014887E+00    6.64280000000000E+01
    1.32886000000000E+02    3.84390000000000E+01    1.39263200000000E+01    1.32781514926154E+01    1.32781514926154E+01    1.32886000000000E+02
    1.67716000000000E+02    2.15120000000000E+01    3.21340100000000E+01    3.89966170264270E+01    3.89966170264270E+01    1.67716000000000E+02
    1.55841000000000E+02    2.10060000000000E+01    4.42950400000000E+01    6.40864649443724E+01    6.40864649443724E+01    1.55841000000000E+02
    1.03888000000000E+02    3.28740000000000E+01    5.91538200000000E+01    6.85084671845796E+01    6.85084671845796E+01    1.03888000000000E+02
    1.51115000000000E+02    5.35960000000000E+01    6.06901500000000E+01    8.10656847341454E+01    8.10656847341454E+01    1.51115000000000E+02
    9.90250000000000E+01    8.48540000000000E+01    7.24461500000000E+01    6.88929953210845E+01    6.88929953210845E+01    9.90250000000000E+01
    1.41865000000000E+02    1.16493000000000E+02    4.46524400000000E+01    6.60260722499842E+01    6.60260722499842E+01    1.41865000000000E+02
    8.48970000000000E+01    1.43850000000000E+02    3.66218900000000E+01    4.46737715947718E+01    4.46737715947718E+01    8.48970000000000E+01
    4.86820000000000E+01    1.68196000000000E+02    2.03438800000000E+01    2.07834352093613E+01    2.07834352093613E+01    4.86820000000000E+01
    3.03320000000000E+01    1.84664000000000E+02    1.04499900000000E+01    4.47845776532039E+00    4.47845776532039E+00    3.03320000000000E+01
    1.74350000000000E+01    1.51290000000000E+02    6.18728100000000E+00    2.82763846701519E-03    2.82763846701519E-03    1.74350000000000E+01
    5.64460000000000E+01    1.19840000000000E+02    6.05961400000000E+00    1.69092916910780E-04    1.69092916910780E-04    5.64460000000000E+01
    1.06876000000000E+02    6.59960000000000E+01    9.19297200000000E+00    1.79525950025500E+00    1.79525950025500E+00    1.06876000000000E+02
    2.04870000000000E+01    3.73180000000000E+01    7.96717700000000E+00    1.35813538952705E+00    1.35813538952705E+00    2.04870000000000E+01
    5.93210000000000E+01    2.25540000000000E+01    1.11752200000000E+01    4.23896207041552E+00    4.23896207041552E+00    5.93210000000000E+01
    3.43550000000000E+01    2.16510000000000E+01    9.04245200000000E+00    5.58502061363428E+00    5.58502061363428E+00    3.43550000000000E+01
    8.80880000000000E+01    3.25380000000000E+01    1.52323300000000E+01    1.26692446202003E+01    1.26692446202003E+01    8.80880000000000E+01
    1.45003000000000E+02    5.28880000000000E+01    3.63932400000000E+01    2.87181644718499E+01    2.87181644718499E+01    1.45003000000000E+02
    1.23025000000000E+02    8.40360000000000E+01    4.38464900000000E+01    3.57629723350875E+01    3.57629723350875E+01    1.23025000000000E+02
    6.24960000000000E+01    1.18366000000000E+02    3.49852600000000E+01    2.41503703376971E+01    2.41503703376971E+01    6.24960000000000E+01
    6.00320000000000E+01    1.52076000000000E+02    1.77968900000000E+01    1.23149432246079E+01    1.23149432246079E+01    6.00320000000000E+01
    7.37200000000000E+01    1.76591000000000E+02    9.25741500000000E+00    4.78788764147360E+00    4.78788764147360E+00    7.37200000000000E+01
    5.68660000000000E+01    1.70102000000000E+02    6.91090600000000E+00    4.70482566101042E-01    4.70482566101042E-01    5.68660000000000E+01
    7.29800000000000E+00    1.51930000000000E+02    4.42725100000000E+00    2.26990405921509E-05    2.26990405921509E-05    7.29800000000000E+00
    3.38210000000000E+01    1.22500000000000E+02    3.70644900000000E+00    3.11340233594887E-05    3.11340233594887E-05    3.38210000000000E+01
    2.90100000000000E+01    7.52060000000000E+01    3.12184200000000E+00    7.76196642579749E-05    7.76196642579749E-05    2.90100000000000E+01
    7.00340000000000E+01    4.24560000000000E+01    6.21549800000000E+00    8.09453690115059E-01    8.09453690115059E-01    7.00340000000000E+01
    1.12718000000000E+02    2.36600000000000E+01    1.05435800000000E+01    8.43497370289859E+00    8.43497370289859E+00    1.12718000000000E+02
    1.59817000000000E+02    2.11780000000000E+01    3.41540700000000E+01    3.05144328243750E+01    3.05144328243750E+01    1.59817000000000E+02
    1.24553000000000E+02    3.21240000000000E+01    3.76101200000000E+01    4.61710786382256E+01    4.61710786382256E+01    1.24553000000000E+02
    1.03807000000000E+02    5.27460000000000E+01    3.59798700000000E+01    5.09825696291465E+01    5.09825696291465E+01    1.03807000000000E+02
    7.04470000000000E+01    8.41260000000000E+01    4.13296900000000E+01    4.12959575595496E+01    4.12959575595496E+01    7.04470000000000E+01
    1.14998000000000E+02    1.18740000000000E+02    2.53663200000000E+01    3.87417909799825E+01    3.87417909799825E+01    1.14998000000000E+02
    1.03449000000000E+02    1.49610000000000E+02    1.84044700000000E+01    2.97657244626667E+01    2.97657244626667E+01    1.03449000000000E+02
    5.95380000000000E+01    1.76125000000000E+02    1.25993300000000E+01    1.31411196610279E+01    1.31411196610279E+01    5.95380000000000E+01
    2.90680000000000E+01    1.89000000000000E+02    5.51031200000000E+00    1.33247411580096E+00    1.33247411580096E+00    2.90680000000000E+01
    1.14205000000000E+02    1.51256000000000E+02    5.87830600000000E+00    1.56960443333955E+00    1.56960443333955E+00    1.14205000000000E+02
    1.20310000000000E+01    1.16760000000000E+02    3.76974700000000E+00    3.15438425885066E-04    3.15438425885066E-04    1.20310000000000E+01
    2.94200000000000E+01    7.59350000000000E+01    3.55671600000000E+00    8.29663368208951E-05    8.29663368208951E-05    2.94200000000000E+01
    6.99480000000000E+01    4.26080000000000E+01    4.13548300000000E+00    8.02255318770699E-01    8.02255318770699E-01    6.99480000000000E+01
    2.09274000000000E+02    2.36680000000000E+01    2.92286300000000E+01    2.28921163703122E+01    2.28921163703122E+01    2.09274000000000E+02
    2.69425000000000E+02    2.07060000000000E+01    9.14311000000000E+01    7.80772560588129E+01    7.80772560588129E+01    2.69425000000000E+02
    2.72668000000000E+02    3.04310000000000E+01    1.45348400000000E+02    1.33136411202501E+02    1.33136411202501E+02    2.72668000000000E+02
    1.07946000000000E+02    5.15680000000000E+01    1.31110200000000E+02    1.12207886260707E+02    1.12207886260707E+02    1.07946000000000E+02
    9.44110000000000E+01    8.38680000000000E+01    7.08652600000000E+01    8.77413539172539E+01    8.77413539172539E+01    9.44110000000000E+01
    6.99270000000000E+01    1.15416000000000E+02    4.01717500000000E+01    5.94451578069597E+01    5.94451578069597E+01    6.99270000000000E+01
    7.65350000000000E+01    1.40873000000000E+02    2.83603100000000E+01    3.91021124936756E+01    3.91021124936756E+01    7.65350000000000E+01
    5.37230000000000E+01    1.70794000000000E+02    1.73206800000000E+01    1.81597272419489E+01    1.81597272419489E+01    5.37230000000000E+01
    4.26090000000000E+01    1.82728000000000E+02    9.96035700000000E+00    4.54099866214490E+00    4.54099866214490E+00    4.26090000000000E+01
    1.04890000000000E+01    1.57375000000000E+02    6.21792000000000E+00    7.37259428075156E-04    7.37259428075156E-04    1.04890000000000E+01
    1.24313000000000E+02    1.20688000000000E+02    7.28184200000000E+00    7.71850885925876E-01    7.71850885925876E-01    1.24313000000000E+02
    1.61410000000000E+01    7.55160000000000E+01    6.93057900000000E+00    1.70786474557147E-03    1.70786474557147E-03    1.61410000000000E+01
    5.30070000000000E+01    4.26000000000000E+01    8.70022300000000E+00    3.03210314655758E-01    3.03210314655758E-01    5.30070000000000E+01
    5.13130000000000E+01    2.39690000000000E+01    8.88150100000000E+00    1.67913189181776E+00    1.67913189181776E+00    5.13130000000000E+01
    1.69180000000000E+01    2.05600000000000E+01    8.33711700000000E+00    1.70798832476087E+00    1.70798832476087E+00    1.69180000000000E+01
    2.89390000000000E+01    3.24520000000000E+01    7.76378900000000E+00    1.94058589917268E+00    1.94058589917268E+00    2.89390000000000E+01
    3.44450000000000E+01    5.23410000000000E+01    7.37084700000000E+00    1.65176671542303E+00    1.65176671542303E+00    3.44450000000000E+01
    9.79110000000000E+01    7.98130000000000E+01    1.24849500000000E+01    4.48354257029597E+00    4.48354257029597E+00    9.79110000000000E+01
    3.08440000000000E+01    1.16850000000000E+02    6.55800900000000E+00    7.85417596858666E-01    7.85417596858666E-01    3.08440000000000E+01
    4.73400000000000E+00    1.55420000000000E+02    3.33184200000000E+00    3.15768908756885E-05    3.15768908756885E-05    4.73400000000000E+00
    4.44270000000000E+01    1.76116000000000E+02    2.73433900000000E+00    2.48620818372908E-05    2.48620818372908E-05    4.44270000000000E+01
    2.37940000000000E+01    1.78276000000000E+02    1.37298700000000E+00    5.65969509198356E-06    5.65969509198356E-06    2.37940000000000E+01
    5.09120000000000E+01    1.61480000000000E+02    9.56953900000000E-01    4.38880721416300E-05    4.38880721416300E-05    5.09120000000000E+01
    9.63690000000000E+01    1.26622000000000E+02    3.90851400000000E+00    1.85965036479198E-02    1.85965036479198E-02    9.63690000000000E+01
    1.04349000000000E+02    7.54870000000000E+01    1.03200400000000E+01    1.57324482461218E+00    1.57324482461218E+00    1.04349000000000E+02
    1.53420000000000E+02    4.36590000000000E+01    1.77079000000000E+01    1.39676491692871E+01    1.39676491692871E+01    1.53420000000000E+02
    1.30086000000000E+02    2.49760000000000E+01    2.61845000000000E+01    3.12954463688550E+01    3.12954463688550E+01    1.30086000000000E+02
    1.37092000000000E+02    2.05200000000000E+01    4.03293000000000E+01    5.19877730775804E+01    5.19877730775804E+01    1.37092000000000E+02
    9.72530000000000E+01    3.01200000000000E+01    3.65519000000000E+01    5.80028159685359E+01    5.80028159685359E+01    9.72530000000000E+01
    2.06185000000000E+02    4.93000000000000E+01    6.83604800000000E+01    8.98066844825932E+01    8.98066844825932E+01    2.06185000000000E+02
    8.41830000000000E+01    7.82800000000000E+01    5.25657100000000E+01    7.18045690219292E+01    7.18045690219292E+01    8.41830000000000E+01
    1.33415000000000E+02    1.11055000000000E+02    4.67890900000000E+01    6.68449782437116E+01    6.68449782437116E+01    1.33415000000000E+02
    1.90124000000000E+02    1.35784000000000E+02    5.28899400000000E+01    7.40803308589010E+01    7.40803308589010E+01    1.90124000000000E+02
    9.10200000000000E+01    1.68784000000000E+02    3.91122300000000E+01    4.68618555883507E+01    4.68618555883507E+01    9.10200000000000E+01
    3.46325000000000E+02    1.65032000000000E+02    8.59541000000000E+01    9.70835606631364E+01    9.70835606631364E+01    3.46325000000000E+02
    6.77230000000000E+01    1.47182000000000E+02    5.20966400000000E+01    5.84597399435822E+01    5.84597399435822E+01    6.77230000000000E+01
    3.77060000000000E+01    1.16672000000000E+02    2.46798400000000E+01    3.38327588381608E+01    3.38327588381608E+01    3.77060000000000E+01
    1.62882000000000E+02    7.91420000000000E+01    2.42088700000000E+01    5.03776641314079E+01    5.03776641314079E+01    1.62882000000000E+02
    1.96230000000000E+01    4.65290000000000E+01    2.27953500000000E+01    3.55948122123009E+01    3.55948122123009E+01    1.96230000000000E+01
    1.55950000000000E+01    2.67400000000000E+01    1.56098200000000E+01    2.75778752223843E+01    2.75778752223843E+01    1.55950000000000E+01
    4.23150000000000E+01    2.07480000000000E+01    1.41770100000000E+01    2.75536929453952E+01    2.75536929453952E+01    4.23150000000000E+01
    2.35846000000000E+02    2.85620000000000E+01    3.97214300000000E+01    7.26733018431345E+01    7.26733018431345E+01    2.35846000000000E+02
    1.91027000000000E+02    4.60480000000000E+01    9.84078800000000E+01    9.80481234333801E+01    9.80481234333801E+01    1.91027000000000E+02
    1.77488000000000E+02    7.27320000000000E+01    1.03792800000000E+02    1.06719059935481E+02    1.06719059935481E+02    1.77488000000000E+02
    4.58760000000000E+01    1.08431000000000E+02    6.24202100000000E+01    6.55488795636698E+01    6.55488795636698E+01    4.58760000000000E+01
    5.38380000000000E+01    1.40224000000000E+02    3.29433100000000E+01    3.79031480732204E+01    3.79031480732204E+01    5.38380000000000E+01
    2.34890000000000E+01    1.63660000000000E+02    1.78115600000000E+01    1.36314341964700E+01    1.36314341964700E+01    2.34890000000000E+01
    2.07970000000000E+01    1.76504000000000E+02    9.65205100000000E+00    1.51942500536374E+00    1.51942500536374E+00    2.07970000000000E+01
    1.61900000000000E+01    1.55228000000000E+02    5.89340300000000E+00    1.26157239371227E-04    1.26157239371227E-04    1.61900000000000E+01
