GFORTRAN module version '10' created from ../src/tools/kinds_dmsl_kit.f90
MD5:b1524ae5f875251569cf4777c6d57416 -- If you edit this, you'll get what you deserve.

(() () () () () () () () () () () () () () () () () () () () () () () ()
() () ())

()

()

()

()

()

(2 '__convert_i4_i1' '(intrinsic)' '' 1 ((PROCEDURE UNKNOWN-INTENT
UNKNOWN-PROC UNKNOWN UNKNOWN 0 0 FUNCTION ELEMENTAL PURE) (INTEGER 1 0 0
0 INTEGER ()) 0 0 () () 2 () () () 0 0)
3 '__convert_r4_r8' '(intrinsic)' '' 1 ((PROCEDURE UNKNOWN-INTENT
UNKNOWN-PROC UNKNOWN UNKNOWN 0 0 FUNCTION ELEMENTAL PURE) (REAL 8 0 0 0
REAL ()) 0 0 () () 3 () () () 0 0)
4 'bik' 'kinds_dmsl_kit' '' 1 ((PARAMETER UNKNOWN-INTENT UNKNOWN-PROC
UNKNOWN IMPLICIT-SAVE 0 0) (INTEGER 4 0 0 0 INTEGER ()) 0 0 () (
CONSTANT (INTEGER 4 0 0 0 INTEGER ()) 0 '1') () 0 () () () 0 0)
5 'commentsymb' 'kinds_dmsl_kit' '' 1 ((PARAMETER UNKNOWN-INTENT
UNKNOWN-PROC UNKNOWN IMPLICIT-SAVE 0 0) (CHARACTER 1 0 0 0 CHARACTER ((
CONSTANT (INTEGER 4 0 0 0 INTEGER ()) 0 '1'))) 0 0 () (CONSTANT (
CHARACTER 1 0 0 0 CHARACTER (())) 0 1 '!') () 0 () () () 0 0)
6 'dirsepchar' 'kinds_dmsl_kit' '' 1 ((PARAMETER UNKNOWN-INTENT
UNKNOWN-PROC UNKNOWN IMPLICIT-SAVE 0 0) (CHARACTER 1 0 0 0 CHARACTER ((
CONSTANT (INTEGER 4 0 0 0 INTEGER ()) 0 '1'))) 0 0 () (CONSTANT (
CHARACTER 1 0 0 0 CHARACTER ((CONSTANT (INTEGER 4 0 0 0 INTEGER ()) 0 '1')))
0 1 '\\') () 0 () () () 0 0)
7 'dirsepchar_lix' 'kinds_dmsl_kit' '' 1 ((PARAMETER UNKNOWN-INTENT
UNKNOWN-PROC UNKNOWN IMPLICIT-SAVE 0 0) (CHARACTER 1 0 0 0 CHARACTER ((
CONSTANT (INTEGER 4 0 0 0 INTEGER ()) 0 '1'))) 0 0 () (CONSTANT (
CHARACTER 1 0 0 0 CHARACTER (())) 0 1 '/') () 0 () () () 0 0)
8 'dirsepchar_win' 'kinds_dmsl_kit' '' 1 ((PARAMETER UNKNOWN-INTENT
UNKNOWN-PROC UNKNOWN IMPLICIT-SAVE 0 0) (CHARACTER 1 0 0 0 CHARACTER ((
CONSTANT (INTEGER 4 0 0 0 INTEGER ()) 0 '1'))) 0 0 () (CONSTANT (
CHARACTER 1 0 0 0 CHARACTER (())) 0 1 '\\') () 0 () () () 0 0)
9 'epsilon' '(intrinsic)' '' 1 ((PROCEDURE UNKNOWN-INTENT UNKNOWN-PROC
UNKNOWN UNKNOWN 0 0 FUNCTION) (UNKNOWN 0 0 0 0 UNKNOWN ()) 0 0 () () 9 ()
() () 0 0)
10 'epsre' 'kinds_dmsl_kit' '' 1 ((PARAMETER UNKNOWN-INTENT UNKNOWN-PROC
UNKNOWN IMPLICIT-SAVE 0 0) (REAL 8 0 0 0 REAL ()) 0 0 () (CONSTANT (
REAL 8 0 0 0 REAL ()) 0 '0.10000000000000@-12') () 0 () () () 0 0)
11 'exit_failure' 'kinds_dmsl_kit' '' 1 ((PARAMETER UNKNOWN-INTENT
UNKNOWN-PROC UNKNOWN IMPLICIT-SAVE 0 0) (INTEGER 4 0 0 0 INTEGER ()) 0 0
() (CONSTANT (INTEGER 4 0 0 0 INTEGER ()) 0 '1') () 0 () () () 0 0)
12 'exit_success' 'kinds_dmsl_kit' '' 1 ((PARAMETER UNKNOWN-INTENT
UNKNOWN-PROC UNKNOWN IMPLICIT-SAVE 0 0) (INTEGER 4 0 0 0 INTEGER ()) 0 0
() (CONSTANT (INTEGER 4 0 0 0 INTEGER ()) 0 '0') () 0 () () () 0 0)
13 'exit_warning' 'kinds_dmsl_kit' '' 1 ((PARAMETER UNKNOWN-INTENT
UNKNOWN-PROC UNKNOWN IMPLICIT-SAVE 0 0) (INTEGER 4 0 0 0 INTEGER ()) 0 0
() (CONSTANT (INTEGER 4 0 0 0 INTEGER ()) 0 '-1') () 0 () () () 0 0)
14 'hik' 'kinds_dmsl_kit' '' 1 ((PARAMETER UNKNOWN-INTENT UNKNOWN-PROC
UNKNOWN IMPLICIT-SAVE 0 0) (INTEGER 4 0 0 0 INTEGER ()) 0 0 () (
CONSTANT (INTEGER 4 0 0 0 INTEGER ()) 0 '8') () 0 () () () 0 0)
15 'huge' '(intrinsic)' '' 1 ((PROCEDURE UNKNOWN-INTENT UNKNOWN-PROC
UNKNOWN UNKNOWN 0 0 FUNCTION) (UNKNOWN 0 0 0 0 UNKNOWN ()) 0 0 () () 15
() () () 0 0)
16 'hugeint' 'kinds_dmsl_kit' '' 1 ((PARAMETER UNKNOWN-INTENT
UNKNOWN-PROC UNKNOWN IMPLICIT-SAVE 0 0) (INTEGER 4 0 0 0 INTEGER ()) 0 0
() (CONSTANT (INTEGER 4 0 0 0 INTEGER ()) 0 '2147483647') () 0 () () ()
0 0)
17 'hugeintr' 'kinds_dmsl_kit' '' 1 ((PARAMETER UNKNOWN-INTENT
UNKNOWN-PROC UNKNOWN IMPLICIT-SAVE 0 0) (REAL 8 0 0 0 REAL ()) 0 0 () (
CONSTANT (REAL 8 0 0 0 REAL ()) 0 '0.7fffffff000000@8') () 0 () () () 0
0)
18 'hugere' 'kinds_dmsl_kit' '' 1 ((PARAMETER UNKNOWN-INTENT
UNKNOWN-PROC UNKNOWN IMPLICIT-SAVE 0 0) (REAL 8 0 0 0 REAL ()) 0 0 () (
CONSTANT (REAL 8 0 0 0 REAL ()) 0 '0.fffffffffffff8@256') () 0 () () ()
0 0)
19 'keyboardunit' 'kinds_dmsl_kit' '' 1 ((PARAMETER UNKNOWN-INTENT
UNKNOWN-PROC UNKNOWN IMPLICIT-SAVE 0 0) (INTEGER 4 0 0 0 INTEGER ()) 0 0
() (CONSTANT (INTEGER 4 0 0 0 INTEGER ()) 0 '5') () 0 () () () 0 0)
20 'kind' '(intrinsic)' '' 1 ((PROCEDURE UNKNOWN-INTENT UNKNOWN-PROC
UNKNOWN UNKNOWN 0 0 FUNCTION) (UNKNOWN 0 0 0 0 UNKNOWN ()) 0 0 () () 20
() () () 0 0)
21 'kinds_dmsl_kit' 'kinds_dmsl_kit' '' 1 ((MODULE UNKNOWN-INTENT
UNKNOWN-PROC UNKNOWN UNKNOWN 0 0) (UNKNOWN 0 0 0 0 UNKNOWN ()) 0 0 () ()
0 () () () 0 0)
22 'len_dmslappname' 'kinds_dmsl_kit' '' 1 ((PARAMETER UNKNOWN-INTENT
UNKNOWN-PROC UNKNOWN IMPLICIT-SAVE 0 0) (INTEGER 4 0 0 0 INTEGER ()) 0 0
() (CONSTANT (INTEGER 4 0 0 0 INTEGER ()) 0 '128') () 0 () () () 0 0)
23 'len_dmsljmsg' 'kinds_dmsl_kit' '' 1 ((PARAMETER UNKNOWN-INTENT
UNKNOWN-PROC UNKNOWN IMPLICIT-SAVE 0 0) (INTEGER 4 0 0 0 INTEGER ()) 0 0
() (CONSTANT (INTEGER 4 0 0 0 INTEGER ()) 0 '32') () 0 () () () 0 0)
24 'len_dmslmessage' 'kinds_dmsl_kit' '' 1 ((PARAMETER UNKNOWN-INTENT
UNKNOWN-PROC UNKNOWN IMPLICIT-SAVE 0 0) (INTEGER 4 0 0 0 INTEGER ()) 0 0
() (CONSTANT (INTEGER 4 0 0 0 INTEGER ()) 0 '1024') () 0 () () () 0 0)
25 'len_dmslpath' 'kinds_dmsl_kit' '' 1 ((PARAMETER UNKNOWN-INTENT
UNKNOWN-PROC UNKNOWN IMPLICIT-SAVE 0 0) (INTEGER 4 0 0 0 INTEGER ()) 0 0
() (CONSTANT (INTEGER 4 0 0 0 INTEGER ()) 0 '1024') () 0 () () () 0 0)
26 'len_dmslwinarg' 'kinds_dmsl_kit' '' 1 ((PARAMETER UNKNOWN-INTENT
UNKNOWN-PROC UNKNOWN IMPLICIT-SAVE 0 0) (INTEGER 4 0 0 0 INTEGER ()) 0 0
() (CONSTANT (INTEGER 4 0 0 0 INTEGER ()) 0 '32768') () 0 () () () 0 0)
27 'len_hlongstr' 'kinds_dmsl_kit' '' 1 ((PARAMETER UNKNOWN-INTENT
UNKNOWN-PROC UNKNOWN IMPLICIT-SAVE 0 0) (INTEGER 4 0 0 0 INTEGER ()) 0 0
() (CONSTANT (INTEGER 4 0 0 0 INTEGER ()) 0 '65536') () 0 () () () 0 0)
28 'len_ishortstr' 'kinds_dmsl_kit' '' 1 ((PARAMETER UNKNOWN-INTENT
UNKNOWN-PROC UNKNOWN IMPLICIT-SAVE 0 0) (INTEGER 4 0 0 0 INTEGER ()) 0 0
() (CONSTANT (INTEGER 4 0 0 0 INTEGER ()) 0 '1') () 0 () () () 0 0)
29 'len_longstr' 'kinds_dmsl_kit' '' 1 ((PARAMETER UNKNOWN-INTENT
UNKNOWN-PROC UNKNOWN IMPLICIT-SAVE 0 0) (INTEGER 4 0 0 0 INTEGER ()) 0 0
() (CONSTANT (INTEGER 4 0 0 0 INTEGER ()) 0 '256') () 0 () () () 0 0)
30 'len_shortstr' 'kinds_dmsl_kit' '' 1 ((PARAMETER UNKNOWN-INTENT
UNKNOWN-PROC UNKNOWN IMPLICIT-SAVE 0 0) (INTEGER 4 0 0 0 INTEGER ()) 0 0
() (CONSTANT (INTEGER 4 0 0 0 INTEGER ()) 0 '8') () 0 () () () 0 0)
31 'len_stdstrb' 'kinds_dmsl_kit' '' 1 ((PARAMETER UNKNOWN-INTENT
UNKNOWN-PROC UNKNOWN IMPLICIT-SAVE 0 0) (INTEGER 4 0 0 0 INTEGER ()) 0 0
() (CONSTANT (INTEGER 4 0 0 0 INTEGER ()) 0 '16') () 0 () () () 0 0)
32 'len_stdstrd' 'kinds_dmsl_kit' '' 1 ((PARAMETER UNKNOWN-INTENT
UNKNOWN-PROC UNKNOWN IMPLICIT-SAVE 0 0) (INTEGER 4 0 0 0 INTEGER ()) 0 0
() (CONSTANT (INTEGER 4 0 0 0 INTEGER ()) 0 '32') () 0 () () () 0 0)
33 'len_stdstrl' 'kinds_dmsl_kit' '' 1 ((PARAMETER UNKNOWN-INTENT
UNKNOWN-PROC UNKNOWN IMPLICIT-SAVE 0 0) (INTEGER 4 0 0 0 INTEGER ()) 0 0
() (CONSTANT (INTEGER 4 0 0 0 INTEGER ()) 0 '128') () 0 () () () 0 0)
34 'len_ulongstr' 'kinds_dmsl_kit' '' 1 ((PARAMETER UNKNOWN-INTENT
UNKNOWN-PROC UNKNOWN IMPLICIT-SAVE 0 0) (INTEGER 4 0 0 0 INTEGER ()) 0 0
() (CONSTANT (INTEGER 4 0 0 0 INTEGER ()) 0 '8192') () 0 () () () 0 0)
35 'len_vlongstr' 'kinds_dmsl_kit' '' 1 ((PARAMETER UNKNOWN-INTENT
UNKNOWN-PROC UNKNOWN IMPLICIT-SAVE 0 0) (INTEGER 4 0 0 0 INTEGER ()) 0 0
() (CONSTANT (INTEGER 4 0 0 0 INTEGER ()) 0 '1024') () 0 () () () 0 0)
36 'len_vshortstr' 'kinds_dmsl_kit' '' 1 ((PARAMETER UNKNOWN-INTENT
UNKNOWN-PROC UNKNOWN IMPLICIT-SAVE 0 0) (INTEGER 4 0 0 0 INTEGER ()) 0 0
() (CONSTANT (INTEGER 4 0 0 0 INTEGER ()) 0 '4') () 0 () () () 0 0)
37 'lik' 'kinds_dmsl_kit' '' 1 ((PARAMETER UNKNOWN-INTENT UNKNOWN-PROC
UNKNOWN IMPLICIT-SAVE 0 0) (INTEGER 4 0 0 0 INTEGER ()) 0 0 () (
CONSTANT (INTEGER 4 0 0 0 INTEGER ()) 0 '4') () 0 () () () 0 0)
38 'lnepsre' 'kinds_dmsl_kit' '' 1 ((PARAMETER UNKNOWN-INTENT
UNKNOWN-PROC UNKNOWN IMPLICIT-SAVE 0 0) (REAL 8 0 0 0 REAL ()) 0 0 () (
CONSTANT (REAL 8 0 0 0 REAL ()) 0 '-0.240b2cde569e24@2') () 0 () () () 0
0)
39 'log' '(intrinsic)' '' 1 ((PROCEDURE UNKNOWN-INTENT UNKNOWN-PROC
UNKNOWN UNKNOWN 0 0 FUNCTION) (UNKNOWN 0 0 0 0 UNKNOWN ()) 0 0 () () 39
() () () 0 0)
40 'lovflw' 'kinds_dmsl_kit' '' 1 ((PARAMETER UNKNOWN-INTENT
UNKNOWN-PROC UNKNOWN IMPLICIT-SAVE 0 0) (REAL 8 0 0 0 REAL ()) 0 0 () (
CONSTANT (REAL 8 0 0 0 REAL ()) 0 '0.2c5c85fdf473dc@3') () 0 () () () 0
0)
41 'lunflw' 'kinds_dmsl_kit' '' 1 ((PARAMETER UNKNOWN-INTENT
UNKNOWN-PROC UNKNOWN IMPLICIT-SAVE 0 0) (REAL 8 0 0 0 REAL ()) 0 0 () (
CONSTANT (REAL 8 0 0 0 REAL ()) 0 '-0.2c3b409975fc88@3') () 0 () () () 0
0)
42 'maxexponent' '(intrinsic)' '' 1 ((PROCEDURE UNKNOWN-INTENT
UNKNOWN-PROC UNKNOWN UNKNOWN 0 0 FUNCTION) (UNKNOWN 0 0 0 0 UNKNOWN ())
0 0 () () 42 () () () 0 0)
43 'maxexprei' 'kinds_dmsl_kit' '' 1 ((PARAMETER UNKNOWN-INTENT
UNKNOWN-PROC UNKNOWN IMPLICIT-SAVE 0 0) (INTEGER 4 0 0 0 INTEGER ()) 0 0
() (CONSTANT (INTEGER 4 0 0 0 INTEGER ()) 0 '1024') () 0 () () () 0 0)
44 'maxexprer' 'kinds_dmsl_kit' '' 1 ((PARAMETER UNKNOWN-INTENT
UNKNOWN-PROC UNKNOWN IMPLICIT-SAVE 0 0) (REAL 8 0 0 0 REAL ()) 0 0 () (
CONSTANT (REAL 8 0 0 0 REAL ()) 0 '0.40000000000000@3') () 0 () () () 0
0)
45 'mck' 'kinds_dmsl_kit' '' 1 ((PARAMETER UNKNOWN-INTENT UNKNOWN-PROC
UNKNOWN IMPLICIT-SAVE 0 0) (INTEGER 4 0 0 0 INTEGER ()) 0 0 () (
CONSTANT (INTEGER 4 0 0 0 INTEGER ()) 0 '8') () 0 () () () 0 0)
46 'mik' 'kinds_dmsl_kit' '' 1 ((PARAMETER UNKNOWN-INTENT UNKNOWN-PROC
UNKNOWN IMPLICIT-SAVE 0 0) (INTEGER 4 0 0 0 INTEGER ()) 0 0 () (
CONSTANT (INTEGER 4 0 0 0 INTEGER ()) 0 '4') () 0 () () () 0 0)
47 'minexponent' '(intrinsic)' '' 1 ((PROCEDURE UNKNOWN-INTENT
UNKNOWN-PROC UNKNOWN UNKNOWN 0 0 FUNCTION) (UNKNOWN 0 0 0 0 UNKNOWN ())
0 0 () () 47 () () () 0 0)
48 'minexprei' 'kinds_dmsl_kit' '' 1 ((PARAMETER UNKNOWN-INTENT
UNKNOWN-PROC UNKNOWN IMPLICIT-SAVE 0 0) (INTEGER 4 0 0 0 INTEGER ()) 0 0
() (CONSTANT (INTEGER 4 0 0 0 INTEGER ()) 0 '-1021') () 0 () () () 0 0)
49 'minexprer' 'kinds_dmsl_kit' '' 1 ((PARAMETER UNKNOWN-INTENT
UNKNOWN-PROC UNKNOWN IMPLICIT-SAVE 0 0) (REAL 8 0 0 0 REAL ()) 0 0 () (
CONSTANT (REAL 8 0 0 0 REAL ()) 0 '-0.3fd00000000000@3') () 0 () () () 0
0)
50 'mlk' 'kinds_dmsl_kit' '' 1 ((PARAMETER UNKNOWN-INTENT UNKNOWN-PROC
UNKNOWN IMPLICIT-SAVE 0 0) (INTEGER 4 0 0 0 INTEGER ()) 0 0 () (
CONSTANT (INTEGER 4 0 0 0 INTEGER ()) 0 '4') () 0 () () () 0 0)
51 'mrk' 'kinds_dmsl_kit' '' 1 ((PARAMETER UNKNOWN-INTENT UNKNOWN-PROC
UNKNOWN IMPLICIT-SAVE 0 0) (INTEGER 4 0 0 0 INTEGER ()) 0 0 () (
CONSTANT (INTEGER 4 0 0 0 INTEGER ()) 0 '8') () 0 () () () 0 0)
52 'ndecdigitsre' 'kinds_dmsl_kit' '' 1 ((PARAMETER UNKNOWN-INTENT
UNKNOWN-PROC UNKNOWN IMPLICIT-SAVE 0 0) (REAL 8 0 0 0 REAL ()) 0 0 () (
CONSTANT (REAL 8 0 0 0 REAL ()) 0 '0.fa74fb181931e8@1') () 0 () () () 0
0)
53 'radix' '(intrinsic)' '' 1 ((PROCEDURE UNKNOWN-INTENT UNKNOWN-PROC
UNKNOWN UNKNOWN 0 0 FUNCTION) (UNKNOWN 0 0 0 0 UNKNOWN ()) 0 0 () () 53
() () () 0 0)
54 'radixrer' 'kinds_dmsl_kit' '' 1 ((PARAMETER UNKNOWN-INTENT
UNKNOWN-PROC UNKNOWN IMPLICIT-SAVE 0 0) (REAL 8 0 0 0 REAL ()) 0 0 () (
CONSTANT (REAL 8 0 0 0 REAL ()) 0 '0.20000000000000@1') () 0 () () () 0
0)
55 'real' '(intrinsic)' '' 1 ((PROCEDURE UNKNOWN-INTENT UNKNOWN-PROC
UNKNOWN UNKNOWN 0 0 FUNCTION) (UNKNOWN 0 0 0 0 UNKNOWN ()) 0 0 () () 55
() () () 0 0)
56 'screenunit' 'kinds_dmsl_kit' '' 1 ((PARAMETER UNKNOWN-INTENT
UNKNOWN-PROC UNKNOWN IMPLICIT-SAVE 0 0) (INTEGER 4 0 0 0 INTEGER ()) 0 0
() (CONSTANT (INTEGER 4 0 0 0 INTEGER ()) 0 '6') () 0 () () () 0 0)
57 'selected_int_kind' '(intrinsic)' '' 1 ((PROCEDURE UNKNOWN-INTENT
UNKNOWN-PROC UNKNOWN UNKNOWN 0 0 FUNCTION) (UNKNOWN 0 0 0 0 UNKNOWN ())
0 0 () () 57 () () () 0 0)
58 'sik' 'kinds_dmsl_kit' '' 1 ((PARAMETER UNKNOWN-INTENT UNKNOWN-PROC
UNKNOWN IMPLICIT-SAVE 0 0) (INTEGER 4 0 0 0 INTEGER ()) 0 0 () (
CONSTANT (INTEGER 4 0 0 0 INTEGER ()) 0 '2') () 0 () () () 0 0)
59 'tiny' '(intrinsic)' '' 1 ((PROCEDURE UNKNOWN-INTENT UNKNOWN-PROC
UNKNOWN UNKNOWN 0 0 FUNCTION) (UNKNOWN 0 0 0 0 UNKNOWN ()) 0 0 () () 59
() () () 0 0)
60 'tinyre' 'kinds_dmsl_kit' '' 1 ((PARAMETER UNKNOWN-INTENT
UNKNOWN-PROC UNKNOWN IMPLICIT-SAVE 0 0) (REAL 8 0 0 0 REAL ()) 0 0 () (
CONSTANT (REAL 8 0 0 0 REAL ()) 0 '0.40000000000000@-255') () 0 () () ()
0 0)
61 'undefbin' 'kinds_dmsl_kit' '' 1 ((PARAMETER UNKNOWN-INTENT
UNKNOWN-PROC UNKNOWN IMPLICIT-SAVE 0 0) (INTEGER 1 0 0 0 INTEGER ()) 0 0
() (CONSTANT (INTEGER 1 0 0 0 INTEGER ()) 0 '-8') () 0 () () () 0 0)
62 'undefch' 'kinds_dmsl_kit' '' 1 ((PARAMETER UNKNOWN-INTENT
UNKNOWN-PROC UNKNOWN IMPLICIT-SAVE 0 0) (CHARACTER 1 0 0 0 CHARACTER ((
CONSTANT (INTEGER 4 0 0 0 INTEGER ()) 0 '9'))) 0 0 () (CONSTANT (
CHARACTER 1 0 0 0 CHARACTER (())) 0 9 'undefined') () 0 () () () 0 0)
63 'undefch1' 'kinds_dmsl_kit' '' 1 ((PARAMETER UNKNOWN-INTENT
UNKNOWN-PROC UNKNOWN IMPLICIT-SAVE 0 0) (CHARACTER 1 0 0 0 CHARACTER ((
CONSTANT (INTEGER 4 0 0 0 INTEGER ()) 0 '1'))) 0 0 () (CONSTANT (
CHARACTER 1 0 0 0 CHARACTER (())) 0 1 '?') () 0 () () () 0 0)
64 'undefchsv' 'kinds_dmsl_kit' '' 1 ((PARAMETER UNKNOWN-INTENT
UNKNOWN-PROC UNKNOWN IMPLICIT-SAVE 0 0 DIMENSION) (CHARACTER 1 0 0 0
CHARACTER ((CONSTANT (INTEGER 4 0 0 0 INTEGER ()) 0 '9'))) 0 0 () (
ARRAY (CHARACTER 1 0 0 0 CHARACTER ((CONSTANT (INTEGER 4 0 0 0 INTEGER ())
0 '9'))) 1 (((CONSTANT (CHARACTER 1 0 0 0 CHARACTER ((CONSTANT (INTEGER
4 0 0 0 INTEGER ()) 0 '9'))) 0 9 'undefined') ())) ('1')) (1 0 EXPLICIT
(CONSTANT (INTEGER 4 0 0 0 INTEGER ()) 0 '1') (CONSTANT (INTEGER 4 0 0 0
INTEGER ()) 0 '1')) 0 () () () 0 0)
65 'undefcz' 'kinds_dmsl_kit' '' 1 ((PARAMETER UNKNOWN-INTENT
UNKNOWN-PROC UNKNOWN IMPLICIT-SAVE 0 0) (COMPLEX 8 0 0 0 COMPLEX ()) 0 0
() (CONSTANT (COMPLEX 8 0 0 0 COMPLEX ()) 0 '-0.3b9ac9ff000000@8'
'-0.3b9ac9ff000000@8') () 0 () () () 0 0)
66 'undefin' 'kinds_dmsl_kit' '' 1 ((PARAMETER UNKNOWN-INTENT
UNKNOWN-PROC UNKNOWN IMPLICIT-SAVE 0 0) (INTEGER 4 0 0 0 INTEGER ()) 0 0
() (CONSTANT (INTEGER 4 0 0 0 INTEGER ()) 0 '-999999999') () 0 () () ()
0 0)
67 'undefinh' 'kinds_dmsl_kit' '' 1 ((PARAMETER UNKNOWN-INTENT
UNKNOWN-PROC UNKNOWN IMPLICIT-SAVE 0 0) (INTEGER 4 0 0 0 INTEGER ()) 0 0
() (CONSTANT (INTEGER 4 0 0 0 INTEGER ()) 0 '-1073741823') () 0 () () ()
0 0)
68 'undefinsv' 'kinds_dmsl_kit' '' 1 ((PARAMETER UNKNOWN-INTENT
UNKNOWN-PROC UNKNOWN IMPLICIT-SAVE 0 0 DIMENSION) (INTEGER 4 0 0 0
INTEGER ()) 0 0 () (ARRAY (INTEGER 4 0 0 0 INTEGER ()) 1 (((CONSTANT (
INTEGER 4 0 0 0 INTEGER ()) 0 '-999999999') ())) ('1')) (1 0 EXPLICIT (
CONSTANT (INTEGER 4 0 0 0 INTEGER ()) 0 '1') (CONSTANT (INTEGER 4 0 0 0
INTEGER ()) 0 '1')) 0 () () () 0 0)
69 'undeflg' 'kinds_dmsl_kit' '' 1 ((PARAMETER UNKNOWN-INTENT
UNKNOWN-PROC UNKNOWN IMPLICIT-SAVE 0 0) (LOGICAL 4 0 0 0 LOGICAL ()) 0 0
() (CONSTANT (LOGICAL 4 0 0 0 LOGICAL ()) 0 0) () 0 () () () 0 0)
70 'undefrn' 'kinds_dmsl_kit' '' 1 ((PARAMETER UNKNOWN-INTENT
UNKNOWN-PROC UNKNOWN IMPLICIT-SAVE 0 0) (REAL 8 0 0 0 REAL ()) 0 0 () (
CONSTANT (REAL 8 0 0 0 REAL ()) 0 '-0.3b9ac9ff000000@8') () 0 () () () 0
0)
71 'undefrnh' 'kinds_dmsl_kit' '' 1 ((PARAMETER UNKNOWN-INTENT
UNKNOWN-PROC UNKNOWN IMPLICIT-SAVE 0 0) (REAL 8 0 0 0 REAL ()) 0 0 () (
CONSTANT (REAL 8 0 0 0 REAL ()) 0 '-0.7ffffffffffffc@256') () 0 () () ()
0 0)
72 'undefrnhs' 'kinds_dmsl_kit' '' 1 ((PARAMETER UNKNOWN-INTENT
UNKNOWN-PROC UNKNOWN IMPLICIT-SAVE 0 0) (REAL 8 0 0 0 REAL ()) 0 0 () (
CONSTANT (REAL 8 0 0 0 REAL ()) 0 '-0.225c17d04dad28@249') () 0 () () ()
0 0)
73 'undefrnsv' 'kinds_dmsl_kit' '' 1 ((PARAMETER UNKNOWN-INTENT
UNKNOWN-PROC UNKNOWN IMPLICIT-SAVE 0 0 DIMENSION) (REAL 8 0 0 0 REAL ())
0 0 () (ARRAY (REAL 8 0 0 0 REAL ()) 1 (((CONSTANT (REAL 8 0 0 0 REAL ())
0 '-0.3b9ac9ff000000@8') ())) ('1')) (1 0 EXPLICIT (CONSTANT (INTEGER 4
0 0 0 INTEGER ()) 0 '1') (CONSTANT (INTEGER 4 0 0 0 INTEGER ()) 0 '1'))
0 () () () 0 0)
)

('__convert_i4_i1' 0 2 '__convert_r4_r8' 0 3 'bik' 0 4 'commentsymb' 0 5
'dirsepchar' 0 6 'dirsepchar_lix' 0 7 'dirsepchar_win' 0 8 'epsilon' 0 9
'epsre' 0 10 'exit_failure' 0 11 'exit_success' 0 12 'exit_warning' 0 13
'hik' 0 14 'huge' 0 15 'hugeint' 0 16 'hugeintr' 0 17 'hugere' 0 18
'keyboardunit' 0 19 'kind' 0 20 'kinds_dmsl_kit' 0 21 'len_dmslappname'
0 22 'len_dmsljmsg' 0 23 'len_dmslmessage' 0 24 'len_dmslpath' 0 25
'len_dmslwinarg' 0 26 'len_hlongstr' 0 27 'len_ishortstr' 0 28
'len_longstr' 0 29 'len_shortstr' 0 30 'len_stdstrb' 0 31 'len_stdstrd'
0 32 'len_stdstrl' 0 33 'len_ulongstr' 0 34 'len_vlongstr' 0 35
'len_vshortstr' 0 36 'lik' 0 37 'lnepsre' 0 38 'log' 0 39 'lovflw' 0 40
'lunflw' 0 41 'maxexponent' 0 42 'maxexprei' 0 43 'maxexprer' 0 44 'mck'
0 45 'mik' 0 46 'minexponent' 0 47 'minexprei' 0 48 'minexprer' 0 49 'mlk'
0 50 'mrk' 0 51 'ndecdigitsre' 0 52 'radix' 0 53 'radixrer' 0 54 'real'
0 55 'screenunit' 0 56 'selected_int_kind' 0 57 'sik' 0 58 'tiny' 0 59
'tinyre' 0 60 'undefbin' 0 61 'undefch' 0 62 'undefch1' 0 63 'undefchsv'
0 64 'undefcz' 0 65 'undefin' 0 66 'undefinh' 0 67 'undefinsv' 0 68
'undeflg' 0 69 'undefrn' 0 70 'undefrnh' 0 71 'undefrnhs' 0 72 'undefrnsv'
0 73)
