GFORTRAN module version '10' created from ../src/main/main_FLEX_dll_C.f90
MD5:dcbb5ba3349aab713d09c7a759ab8c1c -- If you edit this, you'll get what you deserve.

(() () () () () () () () () () () () () () () () () () () () () () ()
() () () ())

()

()

()

()

()

()

()
