stream,run,timestep,algaeDens,prey,predator
0,0,1100.0,12.895813627041196,2964,69
0,0,1200.0,38.80366821770398,1353,10
0,0,1300.0,30.03958897441257,2507,73
0,0,1400.0,3.5607615281502247,2655,45
0,0,1500.0,28.692682879067412,2161,33
0,0,1600.0,39.91389275069296,2547,42
0,0,1700.0,23.24550813774841,4153,26
0,0,1800.0,5.081131265768402,3003,26
0,0,1900.0,38.296714625495156,2511,22
0,0,2000.0,35.750083757603356,3369,44
0,0,2100.0,7.616730942683318,2205,17
0,0,2200.0,14.36568888018924,2646,25
0,0,2300.0,39.25755294459788,3060,23
0,0,2400.0,32.749162213517664,2533,51
0,0,2500.0,5.246746253664393,1389,16
0,0,2600.0,34.3444330504599,1167,15
0,0,2700.0,36.959388430448044,3684,76
0,0,2800.0,18.717975406469733,1147,36
0,0,2900.0,6.244702100357916,1172,26
0,0,3000.0,37.308518214910094,1394,17
